<svg xmlns="http://www.w3.org/2000/svg" width="154.945" height="123" viewBox="0 0 154.945 123">
  <g id="BUILDINGS" transform="translate(-19 -37.7)">
    <path id="Path_7897" data-name="Path 7897" d="M30.943,121.2a4.71,4.71,0,0,1-2.318,2.825c-1.3.652-2.9.58-4.419.8-4.781-.217-5.65-1.449-3.839-5.94a4.729,4.729,0,0,1,5.8-3.187C28.553,116.206,31.378,119.1,30.943,121.2Zm104.963-20.428a53.371,53.371,0,0,1,7.534-5.8,2.6,2.6,0,0,1,2.608.435,27.858,27.858,0,0,1,3.4,6.085,2.526,2.526,0,0,1-1.594,3.4c-2.753,1.087-5.578,1.883-8.33,2.753l-.145-.435a3.589,3.589,0,0,1-1.231-.145c-1.3-.652-3.332-1.159-3.622-2.1A5.594,5.594,0,0,1,135.906,100.776Zm-84.753,11.3c1.231-1.594,1.883-1.521,2.535.217,1.3,3.4,3.187,6.23,6.664,7.823,1.3.579,1.739,1.376.217,2.535a28.128,28.128,0,0,0-3.332,3.622,17.328,17.328,0,0,1-.942-1.521c-1.159-3.549-3.767-5.288-7.244-5.94a12.015,12.015,0,0,1-2.246-.869,17.371,17.371,0,0,1,1.3-1.883C49.125,114.612,50.139,113.381,51.153,112.077Zm6.737,19.776,5.288,8.186-7.389-1.449C56.514,136.416,57.166,134.315,57.89,131.852ZM61,127.361c0-1.956,2.463-3.4,6.012-3.477a14.583,14.583,0,0,1,7.751,3.187c2.246,1.956,2.39,4.274.435,6.519-2.825,3.26-7.316,4.491-10,2.535A9.9,9.9,0,0,1,61,127.361Zm8.475-6.737c1.014-.652,2.028-1.3,3.042-1.883a1.277,1.277,0,0,1,1.087.58c.145,1.014.29,2.028.362,3.042-.507,0-1.014.217-1.449.072-.942-.29-1.883-.724-2.825-1.087C69.625,121.059,69.553,120.842,69.48,120.624Zm1.449-4.708c-.29.217-.58.362-.869.58-5.143,3.332-10.214,1.739-12.749-3.839-1.376-3.187-2.825-6.3-2.318-9.924a5.867,5.867,0,0,1,4.926-5.36,87.26,87.26,0,0,1,10.648-.435c3.187.072,5.65,3.042,5.94,6.447.072.869,0,1.811,0,2.9.724,4.564-2.246,7.171-5.578,9.634ZM83.823,98.1c-1.3-2.463-.942-4.057,1.159-5.868a14.283,14.283,0,0,1,18.617.217,28.809,28.809,0,0,1,4.129,4.274c1.811,2.39,1.3,4.346-1.666,5.216-3.622,1.014-7.389,1.594-11.083,2.318-4.781-.217-8.693-1.666-11.155-6.157Zm3.4-12.315a22.946,22.946,0,0,1,1.521-2.97l2.97,2.39L88.242,87.23c-.507-.724-1.159-1.231-1.014-1.449Zm29.265,20.79c2.68-.8,5.433-1.159,8.113,0a5.251,5.251,0,0,1,3.115,6.809,76.273,76.273,0,0,1-3.115,8.91c-1.449,3.115-4.491,2.608-7.171,2.173-2.463-.435-4.491-1.666-5.071-4.564-.435-2.1-1.014-4.129-1.521-6.157.362-4.636,1.159-5.8,5.65-7.171Zm14.125-20.065a15.3,15.3,0,0,1,.724,9.345c-.58,2.318-2.68,3.042-4.781,3.332a35.231,35.231,0,0,1-3.912,0h0c-1.159,0-2.39.072-3.549,0a5.643,5.643,0,0,1-5.288-4.781,19.661,19.661,0,0,1,.217-6.519c.652-2.608,2.318-4.564,5.288-4.853,1.956-.145,3.984-.435,5.94-.435a5.585,5.585,0,0,1,5.36,3.912ZM119.1,61.37a8.055,8.055,0,0,1,10.069-3.694,10.167,10.167,0,0,1,6.447,9.345,7.792,7.792,0,0,1-5.505,7.751c-2.97,1.087-5.94,1.376-8.548-1.087-2.535-2.39-3.984-9.2-2.463-12.315Zm-8.91,3.042c2.97,1.449,4.057,3.984,2.9,6.954-2.028,5.143-10.721,11.155-16.226,11.228-4.129.362-6.664-2.173-7.968-5.578a40.7,40.7,0,0,1-2.463-10.648c-.507-5.505,3.549-7.171,8.186-6.664a45.628,45.628,0,0,1,15.574,4.708Zm-14.633-19.7c1.014-4.564,4.926-7.027,8.982-6.085a32.624,32.624,0,0,1,11.228,4.636c2.39,1.594,2.753,3.332.507,5.216a59.216,59.216,0,0,1-8.765,5.8,14.85,14.85,0,0,1-3.549,1.231A8.733,8.733,0,0,1,95.558,44.709ZM67.6,51.591c-1.231-5.868,1.811-8.186,6.3-9.707a19.694,19.694,0,0,1,2.753-.8c1.811-.29,3.549-.435,5.36-.58,3.984.072,5.8,1.3,7.1,4.274,2.1,4.853.217,9.055-2.246,10.938a17.266,17.266,0,0,1-11.083,4.057C70.639,59.776,68.466,55.647,67.6,51.591Zm16.516,12.1-1.666,2.246-2.39-2.608c.8-.435,1.521-1.159,2.318-1.231C82.809,61.949,83.388,62.964,84.113,63.688Zm-24.7,16.226A28.462,28.462,0,0,1,70.929,65.861c3.187-2.028,6.23-1.521,8.33,1.666a52.71,52.71,0,0,1,3.984,8.4,32.633,32.633,0,0,1,1.014,3.549c1.956,5.94-2.39,10-6.447,11.155-2.1.58-4.346.8-6.592,1.231-2.39-.435-5-.58-7.244-1.376C59.918,89.041,57.818,84.043,59.411,79.914ZM41.519,72.453c-2.173-1.376-2.318-3.839-1.739-6.157a13.768,13.768,0,0,1,4.926-7.461,4.79,4.79,0,0,1,6.012-.145,46.529,46.529,0,0,1,6.592,5.94c2.173,2.463,1.883,4.926-.58,7.1-2.39,2.1-5.288,2.825-8.982,3.477-1.739-.8-4.2-1.449-6.23-2.753Zm-2.97,15.284a18.614,18.614,0,0,1,.362-4.926,3.445,3.445,0,0,1,1.666-2.1c3.912-1.739,10.286,1.159,11.518,5.216A24.457,24.457,0,0,1,52.819,91,2.368,2.368,0,0,1,50.646,93.6c-1.159.145-2.318.217-3.477.29v-.072c-.869,0-1.811.072-2.68,0-3.622-.362-5.8-2.608-5.94-6.085ZM32.1,105.557c1.883-3.912,4.129-5.868,7.823-5.868a16.836,16.836,0,0,1,9.489,6.012,2.905,2.905,0,0,1,.362,1.956c-.29,2.463-4.274,6.954-6.664,7.461a3.872,3.872,0,0,1-2.39-.145,61.054,61.054,0,0,1-7.678-4.274C31.305,109.614,31.16,107.658,32.1,105.557Zm4.346,40.348c-3.042,1.376-6.3,2.318-9.417,3.4l-.217-.507c-2.753,0-4.419-1.376-4.129-3.984a11.282,11.282,0,0,1,4.346-8.186c2.028-1.521,4.057-1.014,5.8.217a24.774,24.774,0,0,1,4.564,4.129c1.521,1.883,1.231,3.912-.942,4.926Zm16.081-8.62a6.887,6.887,0,0,1-6.519,2.9c-3.115-.145-5.505-1.3-6.592-4.419-.942-2.825-1.811-5.65-2.608-8.548a4.835,4.835,0,0,1,3.549-5.723c.145,0,.29-.072.435-.072a35.234,35.234,0,0,1,3.912,0l.072-.362a26.232,26.232,0,0,1,5.36,1.231,5.047,5.047,0,0,1,2.825,2.463c1.666,4.274,2.318,8.548-.435,12.532Zm12.242,10.648a3.365,3.365,0,0,1-2.318,2.1,17.36,17.36,0,0,1-5.8-.579c-1.956-.652-2.97-4.636-1.666-6.23.507-.652,1.739-.8,3.115-1.449a36.872,36.872,0,0,1,5.8,3.042,3.679,3.679,0,0,1,.869,3.115ZM87.88,158.22c-1.739,2.318-6.3,2.97-9.2,1.014a31.241,31.241,0,0,1-7.9-6.882c-2.535-3.115-1.231-8.041,2.463-9.924a26.889,26.889,0,0,1,7.389-2.463,33.194,33.194,0,0,1,8.041-.145c2.9.217,4.491,2.318,4.491,6.085A27.545,27.545,0,0,1,87.88,158.22Zm7.968-24.557c-.362,1.3-.724,2.68-1.087,3.984-.29,1.159-1.014,1.159-1.883.652-3.332-2.028-6.954-1.883-10.648-1.449-1.521.217-3.115.362-5.143.652.435-1.014.724-1.521.942-2.1a29.449,29.449,0,0,0,1.594-4.2c.29-1.231.724-1.883,1.883-1.159a21.135,21.135,0,0,0,13.111,2.173c1.3-.29,1.521.362,1.231,1.449Zm-16.081-8.982a9.017,9.017,0,0,1-2.753-6.737c0-3.477.652-4.419,3.912-5.723,3.622-1.376,7.316-2.608,11.228-2.463,4.419.072,7.1,2.1,8.4,6.3a35.816,35.816,0,0,1,1.087,3.984,6.814,6.814,0,0,1-3.839,7.534A15.883,15.883,0,0,1,79.766,124.681Zm34.046,14.053c-1.956,2.9-4.491,4.564-8.33,3.115-1.739-.652-3.839-.507-5.723-.652-1.449-.072-2.246-.724-2.1-2.173.652-6.519,4.2-10.431,11.59-11.011a6.413,6.413,0,0,1,5.65,3.622C116.493,134.388,115.261,136.633,113.812,138.734Zm4.781-6.882a17.266,17.266,0,0,1-1.666-3.26c-.072-.145.507-.8.8-.869,1.666-.072,3.4-.072,5.071-.072l.29.507c-1.087,1.231-2.1,2.463-3.26,3.622C119.608,132.07,118.666,132.07,118.593,131.852Zm22.673,14.125c-5.8,6.012-12.894,6.447-19.486,2.246a5.788,5.788,0,0,1-2.68-5.8c.507-5,2.535-9.127,6.882-11.88a6.086,6.086,0,0,1,7.534.217,68.949,68.949,0,0,1,8.4,8.186A5.263,5.263,0,0,1,141.267,145.978Zm12.025-19.993a5.787,5.787,0,0,1-2.028,1.449,42.723,42.723,0,0,1-7.678,2.39c-3.839.724-7.461-1.376-7.316-6.809a48.506,48.506,0,0,1,1.666-6.375c1.3-3.549,5.288-4.636,8.4-2.246a68.271,68.271,0,0,1,7.1,6.592c1.666,1.739,1.449,3.4-.145,5Zm7.171-1.521c1.087-3.26,2.9-4.419,5.433-3.984,3.4.579,5.505,3.115,5.071,6.157a2.9,2.9,0,0,1-1.376,2.028,40.844,40.844,0,0,1-5.071,1.521c-4.419-.29-5.433-1.594-4.057-5.723Zm10.576,20.645a9,9,0,0,1-12.677-3.042c-2.318-3.839-.58-6.882,3.984-6.954h1.883l.145-.507a41.08,41.08,0,0,1,6.592,2.1C174.443,138.517,174.516,143.008,171.039,145.109Z" transform="translate(-0.136 -0.2)" fill="#fff"/>
    <path id="Path_7898" data-name="Path 7898" d="M30.835,121.032l-.435-.072a3.243,3.243,0,0,1-.8,1.449,4.536,4.536,0,0,1-1.3,1.087,14.957,14.957,0,0,1-4.274.8l.072.435v-.435a8.461,8.461,0,0,1-3.4-.652,1.153,1.153,0,0,1-.652-.652,1.812,1.812,0,0,1-.217-.942,9.17,9.17,0,0,1,.869-3.187,5.807,5.807,0,0,1,1.666-2.318,4.168,4.168,0,0,1,2.463-.8,6.34,6.34,0,0,1,1.159.145,6.694,6.694,0,0,1,3.042,1.811,4.453,4.453,0,0,1,1.449,2.825v.362h0l.362.145.435.072c0-.145.072-.362.072-.507a5.42,5.42,0,0,0-1.666-3.4,7.286,7.286,0,0,0-3.477-2.1,8.875,8.875,0,0,0-1.376-.145,4.492,4.492,0,0,0-2.9.942,5.416,5.416,0,0,0-1.956,2.68,9.663,9.663,0,0,0-.869,3.477,2.317,2.317,0,0,0,.362,1.376,2.863,2.863,0,0,0,1.739,1.231,15.252,15.252,0,0,0,3.042.435h.145a16.927,16.927,0,0,0,4.564-.869,4.529,4.529,0,0,0,1.594-1.3,4.832,4.832,0,0,0,.942-1.811h0ZM135.8,100.6l.29.29a52.242,52.242,0,0,1,7.461-5.723h0a.936.936,0,0,1,.58-.145,4.239,4.239,0,0,1,.942.145c.29.072.507.217.507.29h0a37.078,37.078,0,0,1,3.4,5.94h0a1.7,1.7,0,0,1,.145.8,2.221,2.221,0,0,1-1.521,2.028c-2.68,1.087-5.505,1.811-8.33,2.753l.145.435.362-.145-.145-.435-.072-.29h-.435a4.239,4.239,0,0,1-.942-.145l-.145.435.217-.362c-.652-.362-1.521-.652-2.173-.942a2.5,2.5,0,0,1-.869-.507.966.966,0,0,1-.362-.435h0a1.412,1.412,0,0,1-.072-.579,5.335,5.335,0,0,1,.362-1.739,5.48,5.48,0,0,1,.869-1.449h0l-.217-.217-.29-.29a5.964,5.964,0,0,0-1.521,3.767,1.837,1.837,0,0,0,.145.869h0a1.978,1.978,0,0,0,.652.869,5.477,5.477,0,0,0,1.594.8c.579.217,1.159.435,1.594.652h0a3.19,3.19,0,0,0,1.159.145h.145v-.435l-.362.145.145.435.145.362.362-.145c2.753-.869,5.65-1.666,8.4-2.753A3.026,3.026,0,0,0,150,102.2a3.281,3.281,0,0,0-.217-1.159h0a34.433,34.433,0,0,0-3.477-6.157h0a2.08,2.08,0,0,0-.942-.58,3.281,3.281,0,0,0-1.159-.217,2.907,2.907,0,0,0-1.087.217h0a58.561,58.561,0,0,0-7.606,5.8h0ZM51.045,111.9l.362.29a4.1,4.1,0,0,1,.724-.8c.217-.145.29-.217.362-.217s.145,0,.29.217a4.983,4.983,0,0,1,.507.942c1.3,3.4,3.26,6.447,6.882,8.041a2.092,2.092,0,0,1,.724.435.662.662,0,0,1,.217.362.468.468,0,0,1-.145.362l-.652.652h0a33.574,33.574,0,0,0-3.4,3.622l.29.29.362-.29a5.922,5.922,0,0,1-.869-1.449l-.362.145.435-.145a8.676,8.676,0,0,0-2.9-4.274,10.189,10.189,0,0,0-4.708-1.956l-.072.435.145-.435a10.471,10.471,0,0,1-2.1-.8l-.217.362.362.217c.435-.652.8-1.3,1.231-1.883h0l3.042-3.912h0l-.507-.217-.362-.29-3.042,3.912h0l-1.3,1.956-.29.435.435.217A12.712,12.712,0,0,0,48.8,119h0a9.1,9.1,0,0,1,4.346,1.811,8.251,8.251,0,0,1,2.608,3.839h0a5.982,5.982,0,0,0,1.014,1.594l.29.435.362-.362a27.349,27.349,0,0,1,3.26-3.549h0a2.755,2.755,0,0,0,.8-.8,1.392,1.392,0,0,0,.29-.869,1.437,1.437,0,0,0-.435-.942,6.163,6.163,0,0,0-1.014-.652c-3.332-1.521-5.143-4.2-6.447-7.606a5.705,5.705,0,0,0-.58-1.159,1.238,1.238,0,0,0-.942-.507,1.526,1.526,0,0,0-.942.362,3.71,3.71,0,0,0-.869.942h0Zm6.737,19.776-.362.217,4.781,7.389-6.375-1.231-.072.435.435.145c.652-2.246,1.3-4.274,2.1-6.737l-.507-.217-.362.217.362-.217-.435-.145c-.724,2.463-1.376,4.564-2.1,6.737l-.145.435,8.837,1.739-6.3-9.779-.29.869Zm3.115-4.491h.435a2.561,2.561,0,0,1,1.449-2.1,8.092,8.092,0,0,1,4.129-.942v-.435l-.072.435a13.935,13.935,0,0,1,7.534,3.115,3.868,3.868,0,0,1,1.666,3.042,4.513,4.513,0,0,1-1.3,2.9h0a9.272,9.272,0,0,1-6.592,3.332,4.674,4.674,0,0,1-2.825-.869,9.876,9.876,0,0,1-4.057-8.33v-.145h-.8v.145a10.887,10.887,0,0,0,4.346,9.055,5.347,5.347,0,0,0,3.332,1.014,9.791,9.791,0,0,0,7.244-3.622h0a5.423,5.423,0,0,0,1.449-3.477,4.856,4.856,0,0,0-1.956-3.694,15.479,15.479,0,0,0-8.041-3.332h0a9.454,9.454,0,0,0-4.564,1.014,3.312,3.312,0,0,0-1.883,2.825h.072Zm8.475-6.737.217.362c1.014-.652,2.028-1.3,3.042-1.883l-.217-.362V119h0a.761.761,0,0,1,.652.362l.362-.217-.435.072c.145,1.014.29,1.956.362,2.97h.435v-.435a5.918,5.918,0,0,1-1.014.072h-.29c-.942-.29-1.883-.724-2.825-1.087l-.145.362.435-.145-.217-.652-.362.145.217.362-.217-.362-.435.072c.072.217.145.435.217.724l.072.217.217.072c.942.362,1.883.8,2.9,1.087h0a1.233,1.233,0,0,0,.507.072,4.384,4.384,0,0,0,1.087-.145h.435v-.435a21.778,21.778,0,0,0-.362-3.042V119l-.072-.072a1.751,1.751,0,0,0-1.376-.724h-.145l-.072.072c-1.087.579-2.1,1.231-3.115,1.883l-.29.145.072.29Zm1.449-4.708-.217-.362a4.6,4.6,0,0,1-.869.507h0a9.149,9.149,0,0,1-5.071,1.666,6.539,6.539,0,0,1-4.057-1.376,9.721,9.721,0,0,1-3.042-3.984c-1.231-2.68-2.39-5.36-2.39-8.258a9.708,9.708,0,0,1,.072-1.449,6.973,6.973,0,0,1,1.521-3.4,4.5,4.5,0,0,1,3.042-1.594h0a81.609,81.609,0,0,1,8.4-.435h2.173a5.489,5.489,0,0,1,3.767,1.811,6.674,6.674,0,0,1,1.739,4.2h0v2.9h0a7.873,7.873,0,0,1,.072,1.3,7.147,7.147,0,0,1-1.666,4.491,18.359,18.359,0,0,1-3.912,3.477l-1.014.8h1.3v-.29l-.217-.362.362.362v-.435h0v.435l.217.362a19.586,19.586,0,0,0,4.057-3.622,7.952,7.952,0,0,0,1.811-5,10.887,10.887,0,0,0-.145-1.449l-.435.072h.435v-2.97h0a8.135,8.135,0,0,0-1.956-4.708,6.1,6.1,0,0,0-4.346-2.1H68.286a83.013,83.013,0,0,0-8.475.435h0a5.715,5.715,0,0,0-3.622,1.883,7.211,7.211,0,0,0-1.739,3.839,11.846,11.846,0,0,0-.145,1.594c0,3.115,1.231,5.867,2.463,8.548a10.882,10.882,0,0,0,3.332,4.346,7.517,7.517,0,0,0,4.564,1.521,9.943,9.943,0,0,0,5.505-1.811h0a6.042,6.042,0,0,0,.869-.579l1.014-.8h-1.3l.072.435Zm12.894-17.82.362-.217a4.936,4.936,0,0,1-.724-2.318,2.612,2.612,0,0,1,.435-1.449,5.233,5.233,0,0,1,1.376-1.521h0a13.812,13.812,0,0,1,8.91-3.26,14.025,14.025,0,0,1,9.2,3.477h0a28.3,28.3,0,0,1,4.129,4.2l.362-.29-.362.29a4.026,4.026,0,0,1,.942,2.318,1.573,1.573,0,0,1-.58,1.3,4.137,4.137,0,0,1-1.883.942c-3.622,1.014-7.316,1.594-11.083,2.318l.072.435v-.435A17.184,17.184,0,0,1,88.5,102.27,10.324,10.324,0,0,1,84,97.779l-.145-.217h-.29v.362l.362-.217-.217.217v.435h0v-.435l-.362.217a11.2,11.2,0,0,0,4.853,4.853,16.411,16.411,0,0,0,6.664,1.594h.145c3.694-.724,7.461-1.3,11.083-2.318a5.459,5.459,0,0,0,2.246-1.159,2.63,2.63,0,0,0,.8-1.883,5.119,5.119,0,0,0-1.159-2.825h0a29.807,29.807,0,0,0-4.2-4.346l-.29.29.29-.29a14.525,14.525,0,0,0-9.707-3.694,14.771,14.771,0,0,0-9.489,3.477h0a8.687,8.687,0,0,0-1.594,1.739,3.59,3.59,0,0,0-.58,1.883,5.669,5.669,0,0,0,.8,2.68l.145.217h.217v-.435Zm3.4-12.315.362.145A22.075,22.075,0,0,1,89,82.857l-.362-.217-.29.362,2.463,1.956L87.844,86.7l.217.362.362-.217a4.594,4.594,0,0,0-.724-.869,1,1,0,0,0-.217-.29v-.072h0l-.145.072h.145v-.072l-.145.072h-.072l.217.072v-.072h-.217l.217.072.217-.58h-.652l.072.435.29.145-.29-.145v.435h0v-.435l-.362-.145-.072.217a1.047,1.047,0,0,0,.145.507c.145.217.29.362.435.58a4.14,4.14,0,0,0,.507.579l.217.29L92.335,85.1,88.5,82.06l-.217.435a29.936,29.936,0,0,0-1.594,3.042l-.29.58h.652v-.507Zm29.265,20.79.145.435a15.11,15.11,0,0,1,4.274-.724,8.894,8.894,0,0,1,3.549.724h0a4.906,4.906,0,0,1,2.39,1.883,4.621,4.621,0,0,1,.8,2.608,5.547,5.547,0,0,1-.29,1.811,66.907,66.907,0,0,1-3.115,8.837h0a3.733,3.733,0,0,1-1.666,1.811,4.459,4.459,0,0,1-2.246.435,18.682,18.682,0,0,1-2.825-.29,6.108,6.108,0,0,1-3.042-1.3,4.991,4.991,0,0,1-1.666-2.9h0c-.435-2.1-1.014-4.129-1.521-6.23l-.435.072h.435c.145-2.318.435-3.694,1.159-4.564a5.371,5.371,0,0,1,1.521-1.231,15.054,15.054,0,0,1,2.68-1.014l-.145-.362-.217-.362h0l-2.1,1.449,2.463-.724-.145-.362.217.362h0l2.1-1.521-2.463.724a15.4,15.4,0,0,0-2.825,1.087,4.639,4.639,0,0,0-2.318,2.39,13.33,13.33,0,0,0-.8,4.057v.145c.507,2.1,1.087,4.129,1.521,6.157h0a5.7,5.7,0,0,0,1.956,3.4,7.138,7.138,0,0,0,3.477,1.449,19.583,19.583,0,0,0,2.97.362,5.488,5.488,0,0,0,2.608-.58,4.588,4.588,0,0,0,2.028-2.173h0a68.914,68.914,0,0,0,3.187-8.91,7.112,7.112,0,0,0,.362-2.1,5.644,5.644,0,0,0-.942-3.115,7.655,7.655,0,0,0-2.753-2.173h0a9.134,9.134,0,0,0-3.839-.8,14.413,14.413,0,0,0-4.564.8l.072.435.217.362ZM130.51,86.334l-.362.145a15.449,15.449,0,0,1,1.087,5.723,17.5,17.5,0,0,1-.362,3.4l.435.072-.435-.072a3.41,3.41,0,0,1-1.594,2.173,7.117,7.117,0,0,1-2.825.8l.072.435v-.435c-.724.072-1.449.072-2.173.072a13.958,13.958,0,0,1-1.739-.072h-.435v.435h.435v-.435h-3.549v0a5.5,5.5,0,0,1-3.26-1.376,4.6,4.6,0,0,1-1.666-2.97h0a15.317,15.317,0,0,1-.145-2.535,22.951,22.951,0,0,1,.362-3.839l-.435-.072.435.072a6.5,6.5,0,0,1,1.666-3.115,5.244,5.244,0,0,1,3.26-1.449c2.028-.145,3.984-.435,5.94-.435a5.069,5.069,0,0,1,3.042.942,5.427,5.427,0,0,1,1.883,2.68l.362-.145-.362-.217h0l-.145.217.072.217.435-.217.362.217h0l.145-.145-.072-.217a6.865,6.865,0,0,0-2.173-3.042,5.747,5.747,0,0,0-3.549-1.087,54.6,54.6,0,0,0-6.012.435,5.871,5.871,0,0,0-3.767,1.666,7.129,7.129,0,0,0-1.883,3.477h0a18.641,18.641,0,0,0-.435,3.984c0,.869.072,1.811.145,2.68l.435-.072-.435.072a5.485,5.485,0,0,0,1.956,3.549,6.537,6.537,0,0,0,3.767,1.594h4.057V99.01h-.435v.435c.58,0,1.159.072,1.739.072.724,0,1.521,0,2.246-.072h0a8.127,8.127,0,0,0,3.187-.942,4.346,4.346,0,0,0,2.028-2.68h0a15.024,15.024,0,0,0,.435-3.622,15.845,15.845,0,0,0-1.159-6.012l-.579.145.362.217ZM118.992,61.2l.362.217a7.692,7.692,0,0,1,6.737-4.057,6.588,6.588,0,0,1,2.825.58l.145-.362-.145.362a9.6,9.6,0,0,1,6.157,8.982,7.64,7.64,0,0,1-1.3,4.491,8.2,8.2,0,0,1-3.912,2.9,10.349,10.349,0,0,1-3.767.8,6.31,6.31,0,0,1-4.346-1.739,9.748,9.748,0,0,1-2.173-3.767,16.792,16.792,0,0,1-.869-4.926,8.084,8.084,0,0,1,.579-3.187l-.724-.435h0l.435.145.362.217-.362-.217.362.217h0l-.362-.217-.362-.217a7.593,7.593,0,0,0-.652,3.549,16.407,16.407,0,0,0,.869,5.216,10.363,10.363,0,0,0,2.39,4.129,6.9,6.9,0,0,0,4.926,2.028,11.323,11.323,0,0,0,4.057-.869,8.91,8.91,0,0,0,4.274-3.187,8.821,8.821,0,0,0,1.449-5,10.313,10.313,0,0,0-6.664-9.707h0a7.908,7.908,0,0,0-3.115-.58,8.4,8.4,0,0,0-7.461,4.491l.724.435Zm-8.91,3.042-.217.362a6.155,6.155,0,0,1,2.318,1.883,4.168,4.168,0,0,1,.8,2.463,5.74,5.74,0,0,1-.435,2.1h0c-.942,2.463-3.549,5.216-6.664,7.316-3.042,2.1-6.592,3.622-9.2,3.622h-.724a6.537,6.537,0,0,1-4.274-1.521,9.632,9.632,0,0,1-2.535-3.839h0a40.325,40.325,0,0,1-2.463-10.5h0c0-.29-.072-.58-.072-.869a5.017,5.017,0,0,1,1.811-4.2,7.541,7.541,0,0,1,4.564-1.231,9.236,9.236,0,0,1,1.376.072h0A45.346,45.346,0,0,1,109.793,64.6l.58.29v-.724l-.29.072-.217.29.217-.29h0l.217-.362a48.34,48.34,0,0,0-15.719-4.853h0a9.708,9.708,0,0,0-1.449-.072A8.229,8.229,0,0,0,88.061,60.4a5.658,5.658,0,0,0-2.173,4.853,4.456,4.456,0,0,0,.072.942h0a41.229,41.229,0,0,0,2.463,10.721h0a10.044,10.044,0,0,0,2.825,4.2,6.766,6.766,0,0,0,4.781,1.666h.8v0c2.9,0,6.519-1.521,9.707-3.767,3.187-2.173,5.867-5,6.954-7.751h0a7.454,7.454,0,0,0,.507-2.39,4.838,4.838,0,0,0-.942-2.97,7.377,7.377,0,0,0-2.68-2.173l-.58-.29V64.1h.29ZM95.45,44.537l.435.072a7.254,7.254,0,0,1,6.882-6.012,6.034,6.034,0,0,1,1.594.217,31.771,31.771,0,0,1,11.083,4.564,6,6,0,0,1,1.376,1.231,2.1,2.1,0,0,1,.435,1.159,1.981,1.981,0,0,1-.29,1.014,6.784,6.784,0,0,1-1.014,1.159,72.526,72.526,0,0,1-8.693,5.8,8.654,8.654,0,0,1-1.883.8c-.652.217-1.231.29-1.594.435l.145.435v-.435a8.062,8.062,0,0,1-5.94-2.535,8.478,8.478,0,0,1-2.318-5.8,8.992,8.992,0,0,1,.217-1.956l-.435-.145-.435-.072a10.894,10.894,0,0,0-.217,2.1,9.3,9.3,0,0,0,2.535,6.375,8.94,8.94,0,0,0,6.519,2.825H104c.362-.145.942-.217,1.594-.435a9.961,9.961,0,0,0,2.1-.869,66.013,66.013,0,0,0,8.765-5.867,5.439,5.439,0,0,0,1.231-1.376,2.612,2.612,0,0,0,.435-1.449,2.9,2.9,0,0,0-.58-1.666,6.248,6.248,0,0,0-1.594-1.449,33.349,33.349,0,0,0-11.373-4.636,7.3,7.3,0,0,0-1.811-.217c-3.622,0-6.809,2.535-7.751,6.664ZM67.489,51.418l.435-.072a9.757,9.757,0,0,1-.29-2.39,5.6,5.6,0,0,1,1.739-4.346,11.864,11.864,0,0,1,4.564-2.463h0a17.212,17.212,0,0,1,2.753-.8l-.072-.435.072.435c1.739-.29,3.549-.435,5.36-.58l-.072-.435v.435a8.533,8.533,0,0,1,4.346,1.014,6.69,6.69,0,0,1,2.39,2.97,9.457,9.457,0,0,1,.869,3.984,8.177,8.177,0,0,1-2.97,6.447h0a17.428,17.428,0,0,1-10.866,3.984h0a6.6,6.6,0,0,1-5.433-2.463,11.93,11.93,0,0,1-2.39-5.433l-.435.145-.435.072a13.551,13.551,0,0,0,2.608,5.8,7.712,7.712,0,0,0,6.085,2.753h0A18.119,18.119,0,0,0,87.12,55.91l-.29-.29.29.362a9.086,9.086,0,0,0,3.26-7.1,10.96,10.96,0,0,0-.942-4.346,6.88,6.88,0,0,0-2.753-3.4A9.163,9.163,0,0,0,81.9,40.046h0c-1.811.217-3.549.362-5.36.58h0a18.079,18.079,0,0,0-2.825.8l.145.362-.145-.435a12.908,12.908,0,0,0-4.926,2.68,6.748,6.748,0,0,0-2.028,5,10.893,10.893,0,0,0,.29,2.535ZM84,63.516l-.362-.217-1.376,1.811-2.028-2.246-.29.29.217.362a6.565,6.565,0,0,0,1.159-.8,3.871,3.871,0,0,1,1.014-.435h0v0h0v0h0v0h.072l.58.58c.217.29.507.58.8.942l.217-.29-.362-.217.362.217.29-.29a6.764,6.764,0,0,1-.942-1.087l-.435-.435a.823.823,0,0,0-.579-.217h-.072l.072.435-.072-.435a3.3,3.3,0,0,0-1.376.58c-.435.29-.8.579-1.087.724l-.435.29,3.042,3.332,2.173-2.9-.29-.29ZM59.3,79.742l.362.145a28.3,28.3,0,0,1,11.3-13.836h0a6.4,6.4,0,0,1,3.477-1.159c1.594,0,3.042.8,4.274,2.68a51.676,51.676,0,0,1,3.912,8.33h0c.435,1.014.579,2.318,1.014,3.549h0A7.952,7.952,0,0,1,84.15,82.2a7.536,7.536,0,0,1-2.1,5.143A9.376,9.376,0,0,1,77.485,90.1c-2.028.58-4.274.8-6.519,1.231l.072.435.072-.435c-2.463-.435-5-.579-7.171-1.376h0a7.765,7.765,0,0,1-4.781-7.244,7.14,7.14,0,0,1,.507-2.753h0l-.362-.217-.362-.145a9.051,9.051,0,0,0-.58,3.042A8.543,8.543,0,0,0,63.65,90.68h0a43.567,43.567,0,0,0,7.316,1.449h.145c2.246-.435,4.491-.652,6.592-1.231a11.281,11.281,0,0,0,4.926-2.97A8.223,8.223,0,0,0,84.946,82.2a9.55,9.55,0,0,0-.507-3.042h0c-.362-1.087-.507-2.39-1.014-3.622h0a59.428,59.428,0,0,0-3.984-8.4,5.878,5.878,0,0,0-5-3.042,7.01,7.01,0,0,0-3.912,1.3h0a28.634,28.634,0,0,0-11.663,14.27h0ZM41.411,72.281l.217-.362A4.119,4.119,0,0,1,40.18,70.4a4.627,4.627,0,0,1-.435-2.028,11.231,11.231,0,0,1,.29-2.1h0a13,13,0,0,1,4.781-7.244h0a4.949,4.949,0,0,1,2.9-1.087,4.28,4.28,0,0,1,2.608.942h0a41.892,41.892,0,0,1,6.519,5.867l.29-.29-.29.29a4.746,4.746,0,0,1,1.376,3.042,4.465,4.465,0,0,1-1.883,3.4h0c-2.246,2.028-5.143,2.753-8.765,3.4l.072.435.145-.362c-1.811-.8-4.2-1.449-6.157-2.753l-1.3-.8.652,1.376.435-.217.217-.362-.217.362.362-.217h0l-.362.217-.217.362a50.434,50.434,0,0,0,6.3,2.825l.145.072h.145c3.694-.652,6.737-1.449,9.2-3.549h0a5.584,5.584,0,0,0,2.173-4.057,5.267,5.267,0,0,0-1.594-3.622h0A43.861,43.861,0,0,0,50.9,58.3h0a5.25,5.25,0,0,0-3.115-1.087,5.461,5.461,0,0,0-3.4,1.231h0a13.531,13.531,0,0,0-5.071,7.678l.435.072-.435-.145a9.043,9.043,0,0,0-.362,2.318,5.459,5.459,0,0,0,.507,2.39,4.772,4.772,0,0,0,1.739,1.883l1.3.8-.652-1.376Zm-2.97,15.284h.435V86.551a22.951,22.951,0,0,1,.362-3.839l-.435-.072.435.145a2.811,2.811,0,0,1,1.449-1.811l-.217-.362.145.362a5.559,5.559,0,0,1,2.463-.507,9.98,9.98,0,0,1,5.216,1.594,7.451,7.451,0,0,1,3.26,3.839h0a28.669,28.669,0,0,1,.724,5h0v.217a1.643,1.643,0,0,1-.507,1.3,2.756,2.756,0,0,1-1.3.652l.072.435-.072-.435c-1.159.145-2.318.217-3.477.29v.435h.435v-.507H44.309v.435l.072-.435a6.146,6.146,0,0,1-3.912-1.739,5.522,5.522,0,0,1-1.521-3.984h-.507l-.362.145h0l.869,1.811-.072-2.028-.435.072.362-.217h0l-.869-1.739.072,1.956a6.667,6.667,0,0,0,1.811,4.491,6.6,6.6,0,0,0,4.419,1.956h2.753v-.435h-.435v.507h.435a29.3,29.3,0,0,0,3.549-.29h0a3.85,3.85,0,0,0,1.811-.869,2.624,2.624,0,0,0,.724-1.883v-.29h0a25.829,25.829,0,0,0-.724-5.216h0a8.071,8.071,0,0,0-3.622-4.346,10.972,10.972,0,0,0-5.65-1.739,6.179,6.179,0,0,0-2.825.58h0a3.756,3.756,0,0,0-1.883,2.318h0a23.965,23.965,0,0,0-.362,3.984V87.42l.435.145.362-.217Zm-6.447,17.82.362.217a11.747,11.747,0,0,1,3.115-4.2,6.648,6.648,0,0,1,4.346-1.376h0V99.59l-.072.435a16.453,16.453,0,0,1,9.272,5.868h0a1.937,1.937,0,0,1,.29,1.231v.435h.435l-.435-.072a5.831,5.831,0,0,1-.8,1.956,16.4,16.4,0,0,1-2.68,3.332,7.4,7.4,0,0,1-2.9,1.811h0a2.971,2.971,0,0,1-.8.072,4.1,4.1,0,0,1-1.3-.217l-.145.362.217-.362a71.3,71.3,0,0,1-7.678-4.2h0a2.958,2.958,0,0,1-1.376-2.535,5.42,5.42,0,0,1,.58-2.173l-.435-.145-.362-.217a5.5,5.5,0,0,0-.652,2.535,3.811,3.811,0,0,0,1.739,3.187h0a67.53,67.53,0,0,0,7.751,4.274h0a4.129,4.129,0,0,0,1.594.29,4.891,4.891,0,0,0,1.014-.145L43,114.874l.072.435a6.12,6.12,0,0,0,2.173-1.087,16.6,16.6,0,0,0,3.187-3.187,8.677,8.677,0,0,0,1.666-3.549h0v-.507a2.772,2.772,0,0,0-.507-1.811l-.362.29.362-.29A17.218,17.218,0,0,0,39.89,99.01h-.145a7.761,7.761,0,0,0-4.853,1.521,11.332,11.332,0,0,0-3.332,4.564Zm4.346,40.348-.145-.362a96.551,96.551,0,0,1-9.417,3.4l.145.362.362-.145-.145-.507-.072-.29h-.362a4.442,4.442,0,0,1-2.753-.8,2.829,2.829,0,0,1-.942-2.246v-.435h0a10.778,10.778,0,0,1,4.2-7.9h0a4.049,4.049,0,0,1,2.39-.869,5.545,5.545,0,0,1,2.97,1.087h0a23.961,23.961,0,0,1,4.491,4.057h0a3.284,3.284,0,0,1,.869,2.028,2.442,2.442,0,0,1-.362,1.231,2.794,2.794,0,0,1-1.231.942v0h-.072l-.072.072.145.362v.435h.072l.072-.072a3.933,3.933,0,0,0,1.594-1.231,2.9,2.9,0,0,0,.58-1.666,3.771,3.771,0,0,0-1.087-2.535l-.29.29.29-.29a25.992,25.992,0,0,0-4.636-4.274h0a5.927,5.927,0,0,0-3.4-1.231,4.377,4.377,0,0,0-2.825,1.014h0a11.5,11.5,0,0,0-4.564,8.475h0v.58a3.613,3.613,0,0,0,1.231,2.9,5.15,5.15,0,0,0,3.26,1.014h.072V148.7l-.362.145.217.507.145.435.435-.145c3.115-1.087,6.375-2.028,9.489-3.4l-.29-.507v0Zm16.081-8.62-.362-.217a5.926,5.926,0,0,1-2.39,2.1,7.266,7.266,0,0,1-3.115.652h-.58a7.718,7.718,0,0,1-3.839-1.014,5.572,5.572,0,0,1-2.318-3.115h0c-.942-2.825-1.811-5.65-2.608-8.548l-.435.072.435-.072a4.891,4.891,0,0,1-.145-1.014,4.4,4.4,0,0,1,3.332-4.2h0c.145,0,.29-.072.435-.072h0a8.766,8.766,0,0,1,1.376-.072c.8,0,1.594.072,2.463.072h.362l.145-.652-.435-.072-.072.435a37.776,37.776,0,0,1,5.288,1.159h0a6.128,6.128,0,0,1,1.594.942,3.2,3.2,0,0,1,1.014,1.3h0a17.779,17.779,0,0,1,1.3,6.23,9.987,9.987,0,0,1-1.811,5.868l.362.217v-.435H52.2l-.145.217.362.217v.435h.217l.145-.217a11.1,11.1,0,0,0,1.956-6.3,18.771,18.771,0,0,0-1.376-6.519h0a4.048,4.048,0,0,0-1.3-1.666,8,8,0,0,0-1.811-1.087h0a29.347,29.347,0,0,0-5.433-1.231l-.435-.072-.145.724.435.072v-.435c-.8,0-1.666-.072-2.463-.072a10.7,10.7,0,0,0-1.521.072h0c-.145,0-.362.072-.507.072h0a5.165,5.165,0,0,0-3.984,5,6.34,6.34,0,0,0,.145,1.159h0c.724,2.9,1.666,5.723,2.608,8.548h0a5.956,5.956,0,0,0,2.68,3.549A9.156,9.156,0,0,0,45.9,140.3h.652a7.874,7.874,0,0,0,3.477-.724,7.17,7.17,0,0,0,2.753-2.39l-.362-.072v0Zm12.242,10.648-.435-.072a2.421,2.421,0,0,1-.8,1.087,2.74,2.74,0,0,1-1.159.652h0c-.435,0-.869.072-1.231.072a15.546,15.546,0,0,1-4.419-.652l-.145.435.145-.435a2.7,2.7,0,0,1-1.376-1.449,5.85,5.85,0,0,1-.58-2.463,2.5,2.5,0,0,1,.507-1.739h0a1.853,1.853,0,0,1,1.087-.58c.507-.217,1.159-.362,1.883-.724L58,141.532l-.217.362a35.536,35.536,0,0,1,5.723,2.97h0a1.912,1.912,0,0,1,.579.942,4.677,4.677,0,0,1,.29,1.376,1.074,1.074,0,0,1-.072.507l.362.072v-.435H64.3l-.072.362.435.072v.435h.362l.072-.362a2.006,2.006,0,0,0,.072-.652,6.7,6.7,0,0,0-.29-1.666,2.9,2.9,0,0,0-.942-1.3l-.217.362.217-.362a41.093,41.093,0,0,0-5.867-3.042l-.145-.072-.145.072a14.1,14.1,0,0,1-1.811.652,3.244,3.244,0,0,0-1.449.869h0a3.43,3.43,0,0,0-.652,2.246,6.454,6.454,0,0,0,.652,2.825,3.43,3.43,0,0,0,1.883,1.883h0a16.669,16.669,0,0,0,4.636.652,7.872,7.872,0,0,0,1.3-.072h0a3.381,3.381,0,0,0,1.666-.869,3.141,3.141,0,0,0,1.087-1.521l-.435-.072v0Zm23.108,10.286-.362-.29a6.3,6.3,0,0,1-4.853,2.028,6.916,6.916,0,0,1-3.767-1.087,33.438,33.438,0,0,1-7.823-6.737h0a5.709,5.709,0,0,1-1.231-3.549,6.578,6.578,0,0,1,3.549-5.8h0a26.422,26.422,0,0,1,7.316-2.463l-.072-.435.072.435a30.514,30.514,0,0,1,4.491-.29,28.005,28.005,0,0,1,3.477.217h0a4.269,4.269,0,0,1,3.042,1.521,6.782,6.782,0,0,1,1.087,4.057h.435l-.435-.072a27.431,27.431,0,0,1-5.216,12.1l.29.362v-.435h-.217l-.145.145.362.29v.435h.217l.145-.145a28.563,28.563,0,0,0,5.36-12.459h0a7.6,7.6,0,0,0-1.231-4.564,4.962,4.962,0,0,0-3.622-1.883v.435l.072-.435a29.176,29.176,0,0,0-3.549-.217,32.181,32.181,0,0,0-4.564.29h0a28.006,28.006,0,0,0-7.534,2.535l.217.362-.217-.362a7.31,7.31,0,0,0-4.057,6.519,6.4,6.4,0,0,0,1.376,4.057h0a33.726,33.726,0,0,0,8.041,6.954,7.821,7.821,0,0,0,4.2,1.159,6.95,6.95,0,0,0,5.505-2.318l-.362-.362v0Zm7.968-24.557-.435-.072c-.362,1.3-.724,2.68-1.087,3.984h0a1.387,1.387,0,0,1-.29.58c-.072.072-.145.072-.29.072a1.343,1.343,0,0,1-.724-.29h0a13.316,13.316,0,0,0-7.1-1.811,34.232,34.232,0,0,0-3.839.29c-1.521.217-3.115.362-5.143.652l.072.435.362.145c.435-1.014.724-1.521.942-2.173h0a37.241,37.241,0,0,0,1.594-4.274h0a2.318,2.318,0,0,1,.362-.942l.145-.145c.072,0,.072-.072.145-.072a1.668,1.668,0,0,1,.652.217,20.627,20.627,0,0,0,10,2.463,26.6,26.6,0,0,0,3.332-.217l-.072-.435.072.435H94.8c.362,0,.507.072.58.145s.072.145.072.362a1.8,1.8,0,0,1-.072.58l.362.072.29-.29h0l-.507-.507-.217.724.435.072-.29.29h0l.507.507.145-.724a3.738,3.738,0,0,0,.145-.8,1.112,1.112,0,0,0-.362-.942,1.779,1.779,0,0,0-1.087-.362h-.435a24.383,24.383,0,0,1-3.187.217,19.71,19.71,0,0,1-9.634-2.318,1.981,1.981,0,0,0-1.014-.29,1.364,1.364,0,0,0-.58.145,1.649,1.649,0,0,0-.58.652,3.586,3.586,0,0,0-.29.942h0a31.685,31.685,0,0,1-1.521,4.129h0c-.217.579-.507,1.087-.942,2.1l-.29.652.724-.072c2.028-.29,3.622-.435,5.143-.652a32.965,32.965,0,0,1,3.767-.29,12.183,12.183,0,0,1,6.664,1.666h0a2.543,2.543,0,0,0,1.159.435,1.336,1.336,0,0,0,.869-.362,2.29,2.29,0,0,0,.507-.942h0c.362-1.3.8-2.68,1.087-3.984H95.74l-.29.29Zm-16.081-8.982.29-.29a8.545,8.545,0,0,1-2.608-6.157v-.217h0V117.7a6.231,6.231,0,0,1,.652-3.332,6.315,6.315,0,0,1,2.97-1.883,28.946,28.946,0,0,1,10.721-2.463h.362a7.7,7.7,0,0,1,8.041,6.012h0a39.381,39.381,0,0,1,1.087,3.912l.435-.072-.435.072a8.066,8.066,0,0,1,.145,1.231,6.474,6.474,0,0,1-3.767,5.867h0a14.986,14.986,0,0,1-6.664,1.521,15.327,15.327,0,0,1-10.938-4.419h0l-.29.362-.29.29a16.147,16.147,0,0,0,11.518,4.636,15.609,15.609,0,0,0,7.027-1.594h0a7.27,7.27,0,0,0,4.2-6.592,8.875,8.875,0,0,0-.145-1.376h0c-.29-1.376-.652-2.68-1.087-4.057l-.435.145.435-.145A8.913,8.913,0,0,0,97.7,110.89a9.183,9.183,0,0,0-5.65-1.666h-.435A30.181,30.181,0,0,0,80.6,111.759a7.015,7.015,0,0,0-3.332,2.173A6.321,6.321,0,0,0,76.4,117.7v.145h0v.217a9.429,9.429,0,0,0,2.9,6.809l.362-.362-.29.29ZM113.7,138.562l-.362-.217a9.968,9.968,0,0,1-2.318,2.535,5.12,5.12,0,0,1-2.9.942,7.141,7.141,0,0,1-2.535-.507c-1.883-.724-3.984-.579-5.868-.652a1.865,1.865,0,0,1-1.3-.362,1.314,1.314,0,0,1-.362-1.014V139h0a11.424,11.424,0,0,1,3.115-7.461c1.811-1.811,4.419-2.9,8.113-3.187v0a5.287,5.287,0,0,1,2.97.869,7.9,7.9,0,0,1,2.318,2.535h0a4.359,4.359,0,0,1,.652,2.318,7.827,7.827,0,0,1-1.811,4.346h0l.29.145.362.217c.942-1.449,1.956-2.97,1.956-4.781a5.185,5.185,0,0,0-.8-2.753h0a8.229,8.229,0,0,0-2.608-2.825,6.253,6.253,0,0,0-3.4-1.014h0c-3.767.29-6.664,1.449-8.62,3.4a13,13,0,0,0-3.4,7.968h0v.435a2,2,0,0,0,.724,1.666,2.851,2.851,0,0,0,1.811.579,20.22,20.22,0,0,1,5.65.579,8.547,8.547,0,0,0,2.825.58,5.616,5.616,0,0,0,3.4-1.087,9.54,9.54,0,0,0,2.608-2.753h0Zm4.781-6.882.362-.217a26.649,26.649,0,0,1-1.666-3.187h0l-.29.145h.362v-.145l-.29.145h0l.217.072v-.072h-.217l.217.072h0a2.887,2.887,0,0,1,.217-.29l.145-.145h.072v0h0v0l-.072-.435v.435c.8-.072,1.594-.072,2.463-.072h2.608v-.435l-.362.217.29.507.362-.217-.29-.29c-1.087,1.231-2.1,2.463-3.26,3.549l.29.29-.29-.29.072.072-.072-.072h0l.072.072-.072-.072a.224.224,0,0,0-.145.072H118.7l-.072.217.217-.145-.072-.072-.072.217.217-.145h0l-.435.217-.362.217c.072.145.145.145.217.217a2.115,2.115,0,0,0,.652.145,1.233,1.233,0,0,0,.507-.072,2.63,2.63,0,0,0,.507-.217h0c1.159-1.159,2.173-2.39,3.26-3.622l.217-.217-.507-1.014h-2.9c-.8,0-1.666,0-2.463.072h0a.438.438,0,0,0-.435.217,3.15,3.15,0,0,0-.507.435.376.376,0,0,0-.145.29c-.072.072-.072.145-.072.362l.072.217h0a29.1,29.1,0,0,0,1.739,3.332h0Zm22.673,14.125-.29-.29c-3.26,3.332-6.809,4.926-10.431,4.926a15.473,15.473,0,0,1-8.475-2.753h0a5.437,5.437,0,0,1-2.535-4.564,2.465,2.465,0,0,1,.072-.724h0c.507-4.853,2.463-8.837,6.664-11.59h0a6.631,6.631,0,0,1,3.477-1.159,5.359,5.359,0,0,1,3.549,1.376h0a73.45,73.45,0,0,1,8.33,8.113h0a4.327,4.327,0,0,1,1.087,2.825,5.462,5.462,0,0,1-1.594,3.622h0l.145.217.29.29a6.133,6.133,0,0,0,1.811-4.2,5.419,5.419,0,0,0-1.231-3.332h0a69.656,69.656,0,0,0-8.4-8.258h0a6.433,6.433,0,0,0-4.057-1.521,6.836,6.836,0,0,0-3.912,1.3h0c-4.419,2.9-6.519,7.171-7.027,12.242l.435.072-.435-.072a3.526,3.526,0,0,0-.072.869,6.134,6.134,0,0,0,2.97,5.288l.217-.362-.217.362a16.49,16.49,0,0,0,8.982,2.9c3.912,0,7.678-1.666,11.083-5.143h0Zm12.025-19.993-.29-.29a6.028,6.028,0,0,1-1.883,1.376l.145.362-.145-.362a43.884,43.884,0,0,1-7.606,2.39,8.874,8.874,0,0,1-1.376.145,5.49,5.49,0,0,1-3.839-1.449,6.355,6.355,0,0,1-1.594-4.708v-.362h-.435l.435.072a53.358,53.358,0,0,1,1.666-6.3h0a4.732,4.732,0,0,1,4.419-3.26,4.971,4.971,0,0,1,3.26,1.231l.29-.362-.29.362a67.713,67.713,0,0,1,7.1,6.592h0a2.858,2.858,0,0,1,1.014,2.028,3.233,3.233,0,0,1-1.159,2.246l.29.29h.435v-1.087l-.724.8.29.29h-.435v1.014l.724-.724a4.011,4.011,0,0,0,1.449-2.9,3.68,3.68,0,0,0-1.231-2.608l-.29.29.29-.29a69.15,69.15,0,0,0-7.171-6.664h0a6.1,6.1,0,0,0-3.839-1.376,5.538,5.538,0,0,0-5.216,3.767h0A51.668,51.668,0,0,0,135.8,122.7v.579a7.313,7.313,0,0,0,1.883,5.288A6.182,6.182,0,0,0,142.1,130.3a10.81,10.81,0,0,0,1.521-.145,48.215,48.215,0,0,0,7.751-2.463h0a7.378,7.378,0,0,0,2.173-1.521l-.362-.362h0Zm7.171-1.521.435.145a6.364,6.364,0,0,1,1.666-2.9,3.417,3.417,0,0,1,2.318-.869,3.527,3.527,0,0,1,.869.072,5.7,5.7,0,0,1,3.477,1.739,4.863,4.863,0,0,1,1.3,3.26,2.464,2.464,0,0,1-.072.724h0a2.378,2.378,0,0,1-.435,1.014,1.479,1.479,0,0,1-.724.652h0a51.812,51.812,0,0,1-5.071,1.521l.145.435v-.435a7.833,7.833,0,0,1-3.332-.724,2.054,2.054,0,0,1-.652-.724,2.419,2.419,0,0,1-.217-1.087,9.433,9.433,0,0,1,.58-2.68v-.145h-.29l.435.145-.435-.145h0l-.435-.145a10.6,10.6,0,0,0-.58,2.97,3.243,3.243,0,0,0,.29,1.449,3.148,3.148,0,0,0,1.666,1.376,10.485,10.485,0,0,0,2.97.507h.145a46.05,46.05,0,0,0,5.143-1.521h0a2.9,2.9,0,0,0,1.087-1.014,3.3,3.3,0,0,0,.58-1.376h0a3.249,3.249,0,0,0,.072-.8,5.483,5.483,0,0,0-1.521-3.839,7,7,0,0,0-3.984-2.028,5.131,5.131,0,0,0-1.014-.072,4.239,4.239,0,0,0-2.9,1.087,7.806,7.806,0,0,0-1.956,3.26v.145Zm10.576,20.645-.217-.362a9.086,9.086,0,0,1-4.781,1.376,8.652,8.652,0,0,1-7.389-4.2,5.873,5.873,0,0,1-.942-2.97,2.853,2.853,0,0,1,1.159-2.39,5.934,5.934,0,0,1,3.4-1.014v0h2.173l.29-.8-.435-.145-.145.435a36.136,36.136,0,0,1,6.519,2.1h0a4.271,4.271,0,0,1,2.463,3.839,4.493,4.493,0,0,1-2.39,3.839h0l.29.29.217.362a5.358,5.358,0,0,0,2.753-4.564,5.142,5.142,0,0,0-2.97-4.564h0c-2.1-1.087-4.491-1.449-6.664-2.173l-.435-.145-.29.942.435.145v-.435h-1.883a6.777,6.777,0,0,0-3.912,1.159,3.743,3.743,0,0,0-1.449,3.042,6.886,6.886,0,0,0,1.087,3.4,9.443,9.443,0,0,0,8.113,4.636,10.706,10.706,0,0,0,5.216-1.449h0Z" transform="translate(-0.028 -0.028)" fill="#fff"/>
    <path id="Path_7899" data-name="Path 7899" d="M78.875,100.469a49.137,49.137,0,0,0,7.244,1.376c2.246-.435,4.491-.652,6.592-1.231,4.057-1.159,8.475-5.216,6.447-11.156a28.563,28.563,0,0,0-1.014-3.549,59.429,59.429,0,0,0-3.984-8.4c-2.1-3.187-5.143-3.694-8.33-1.666A28.462,28.462,0,0,0,74.311,89.893C72.79,94.022,74.891,99.021,78.875,100.469Z" transform="translate(-15.108 -10.179)" fill="#08436a"/>
    <path id="Path_7900" data-name="Path 7900" d="M78.705,100.323l-.145.362a43.567,43.567,0,0,0,7.316,1.449h.145c2.246-.435,4.491-.652,6.592-1.231a11.281,11.281,0,0,0,4.926-2.97,8.223,8.223,0,0,0,2.318-5.723,9.55,9.55,0,0,0-.507-3.042h0c-.362-1.087-.507-2.39-1.014-3.622a55.87,55.87,0,0,0-3.984-8.4,5.878,5.878,0,0,0-5-3.042,7.708,7.708,0,0,0-3.912,1.231A28.634,28.634,0,0,0,73.78,89.6h0a9.051,9.051,0,0,0-.58,3.042,8.472,8.472,0,0,0,5.288,8.041l.217-.362.145-.362a7.692,7.692,0,0,1-4.781-7.244,7.14,7.14,0,0,1,.507-2.753h0a28.294,28.294,0,0,1,11.3-13.836,6.4,6.4,0,0,1,3.477-1.159c1.594,0,3.042.8,4.274,2.68a55.152,55.152,0,0,1,3.912,8.33c.435,1.014.58,2.318,1.014,3.549h0a7.952,7.952,0,0,1,.507,2.753,7.536,7.536,0,0,1-2.1,5.143,9.376,9.376,0,0,1-4.564,2.753c-2.028.58-4.274.8-6.519,1.231l.072.435.072-.435c-2.463-.435-5-.58-7.171-1.376Z" transform="translate(-14.938 -10.032)" fill="#fff"/>
    <path id="Path_7901" data-name="Path 7901" d="M111.888,74.412a42.086,42.086,0,0,0,2.463,10.648c1.3,3.477,3.839,5.94,7.968,5.578,5.578,0,14.27-6.012,16.226-11.228,1.159-3.042.072-5.505-2.9-6.954a45.369,45.369,0,0,0-15.5-4.781C115.437,67.24,111.453,68.906,111.888,74.412Z" transform="translate(-25.592 -8.244)" fill="#08436a"/>
    <path id="Path_7902" data-name="Path 7902" d="M111.735,74.244l-.435.072a41.229,41.229,0,0,0,2.463,10.721h0a10.044,10.044,0,0,0,2.825,4.2,6.766,6.766,0,0,0,4.781,1.666h.8v0c2.9,0,6.519-1.521,9.707-3.767,3.187-2.173,5.868-5,6.954-7.751h0a7.873,7.873,0,0,0,.507-2.39,4.838,4.838,0,0,0-.942-2.97,6.568,6.568,0,0,0-2.68-2.1h0a47.939,47.939,0,0,0-15.647-4.853h0A9.708,9.708,0,0,0,118.616,67a8.229,8.229,0,0,0-5.071,1.449,5.8,5.8,0,0,0-2.173,4.926,3.527,3.527,0,0,0,.072.869h.724v-.8a5.168,5.168,0,0,1,1.811-4.274,7.541,7.541,0,0,1,4.564-1.231,9.237,9.237,0,0,1,1.376.072h0a44.484,44.484,0,0,1,15.357,4.708h0a5.635,5.635,0,0,1,2.318,1.883,4.168,4.168,0,0,1,.8,2.463,5.74,5.74,0,0,1-.435,2.1h0c-.942,2.463-3.549,5.216-6.592,7.316s-6.592,3.622-9.2,3.622h-.724a6.537,6.537,0,0,1-4.274-1.521,9.632,9.632,0,0,1-2.535-3.839h0a40.325,40.325,0,0,1-2.463-10.5h-.435Z" transform="translate(-25.439 -8.076)" fill="#fff"/>
    <path id="Path_7903" data-name="Path 7903" d="M123.627,147.185a35.816,35.816,0,0,0-1.087-3.984c-1.3-4.274-3.984-6.23-8.4-6.3-3.984-.072-7.606,1.087-11.228,2.463-3.26,1.231-3.984,2.246-3.912,5.723a9.017,9.017,0,0,0,2.753,6.737,15.863,15.863,0,0,0,18.037,2.9A6.814,6.814,0,0,0,123.627,147.185Z" transform="translate(-22.048 -27.34)" fill="#08436a"/>
    <path id="Path_7904" data-name="Path 7904" d="M123.436,147.021l.435-.072c-.29-1.376-.652-2.68-1.087-4.057l-.435.145.435-.145a8.913,8.913,0,0,0-3.187-4.926,9.183,9.183,0,0,0-5.65-1.666h-.362a30.558,30.558,0,0,0-11.083,2.535,7.015,7.015,0,0,0-3.332,2.173,6.426,6.426,0,0,0-.869,3.839v.145h0v.217a9.429,9.429,0,0,0,2.9,6.809l.29-.29-.29.29a16.147,16.147,0,0,0,11.518,4.636,14.775,14.775,0,0,0,7.027-1.666h0a7.194,7.194,0,0,0,4.2-6.592,8.875,8.875,0,0,0-.145-1.376h-.362l-.435.072a8.066,8.066,0,0,1,.145,1.231,6.3,6.3,0,0,1-3.767,5.8h0a14.986,14.986,0,0,1-6.664,1.521,15.273,15.273,0,0,1-10.866-4.346h0a8.545,8.545,0,0,1-2.608-6.157v-.217h0v-.145a6.231,6.231,0,0,1,.652-3.332,5.791,5.791,0,0,1,2.97-1.811,29.314,29.314,0,0,1,10.793-2.463h.29a8.051,8.051,0,0,1,5.143,1.521,8.54,8.54,0,0,1,2.9,4.491h0a39.38,39.38,0,0,1,1.087,3.912l.362-.072-.435.072Z" transform="translate(-21.856 -27.176)" fill="#fff"/>
    <path id="Path_7905" data-name="Path 7905" d="M171.289,165.352a5.989,5.989,0,0,0-7.534-.217c-4.346,2.825-6.375,6.954-6.882,11.88a5.788,5.788,0,0,0,2.68,5.8c6.592,4.274,13.691,3.839,19.486-2.246,1.956-2.028,2.39-4.853.58-7.027A68.364,68.364,0,0,0,171.289,165.352Z" transform="translate(-37.981 -34.786)" fill="#08436a"/>
    <path id="Path_7906" data-name="Path 7906" d="M171.15,165.211l.29-.29a6.287,6.287,0,0,0-4.057-1.521,7.744,7.744,0,0,0-3.984,1.231c-4.419,2.9-6.519,7.171-7.027,12.242l.435.072-.435-.072a3.527,3.527,0,0,0-.072.869,6.134,6.134,0,0,0,2.97,5.288l.217-.362-.217.362a16.49,16.49,0,0,0,8.982,2.9c3.912,0,7.678-1.666,11.083-5.143h0a6.133,6.133,0,0,0,1.811-4.2,5.419,5.419,0,0,0-1.231-3.332h0a69.652,69.652,0,0,0-8.4-8.258h0l-.362.217-.29.29a73.448,73.448,0,0,1,8.33,8.113h0a4.327,4.327,0,0,1,1.087,2.825,5.462,5.462,0,0,1-1.594,3.622h0c-3.26,3.332-6.809,4.926-10.431,4.926a15.885,15.885,0,0,1-8.548-2.753h0a5.437,5.437,0,0,1-2.535-4.564,3.248,3.248,0,0,1,.072-.8h0c.507-4.853,2.463-8.837,6.664-11.59a6.631,6.631,0,0,1,3.477-1.159,5.359,5.359,0,0,1,3.549,1.376h0Z" transform="translate(-37.842 -34.645)" fill="#fff"/>
    <path id="Path_7907" data-name="Path 7907" d="M89.973,128.538c0-1.087.072-2.028,0-2.9-.29-3.477-2.753-6.375-5.94-6.447a87.262,87.262,0,0,0-10.648.435,5.867,5.867,0,0,0-4.926,5.36c-.507,3.622.869,6.737,2.318,9.924,2.463,5.65,7.606,7.171,12.749,3.839.29-.217.579-.362.869-.579C87.728,135.709,90.7,133.1,89.973,128.538Z" transform="translate(-13.602 -22.456)" fill="#08436a"/>
    <path id="Path_7908" data-name="Path 7908" d="M89.849,128.379h.435v-2.97h0a8.135,8.135,0,0,0-1.956-4.708,6.1,6.1,0,0,0-4.346-2.1H81.808a83.02,83.02,0,0,0-8.475.435h0a5.715,5.715,0,0,0-3.622,1.883,6.627,6.627,0,0,0-1.666,3.839h0a11.845,11.845,0,0,0-.145,1.594c0,3.115,1.231,5.867,2.463,8.548h0a10.882,10.882,0,0,0,3.332,4.346,7.517,7.517,0,0,0,4.564,1.521,9.943,9.943,0,0,0,5.505-1.811h0a6.043,6.043,0,0,0,.869-.58,19.586,19.586,0,0,0,4.057-3.622,7.952,7.952,0,0,0,1.811-5,10.89,10.89,0,0,0-.145-1.449l-.507.072h0l-.435.072a7.873,7.873,0,0,1,.072,1.3,7.147,7.147,0,0,1-1.666,4.491,18.36,18.36,0,0,1-3.912,3.477,4.6,4.6,0,0,1-.869.507h0a9.149,9.149,0,0,1-5.071,1.666,6.54,6.54,0,0,1-4.057-1.376,9.721,9.721,0,0,1-3.042-3.984h0c-1.231-2.68-2.39-5.36-2.39-8.258a9.707,9.707,0,0,1,.072-1.449h0a6.377,6.377,0,0,1,1.521-3.4,4.5,4.5,0,0,1,3.042-1.594h0a81.609,81.609,0,0,1,8.4-.435h2.173a5.489,5.489,0,0,1,3.767,1.811,6.674,6.674,0,0,1,1.739,4.2h0v2.9h0Z" transform="translate(-13.478 -22.297)" fill="#fff"/>
    <path id="Path_7909" data-name="Path 7909" d="M107.693,178.332a33.194,33.194,0,0,0-8.041.145,26.106,26.106,0,0,0-7.389,2.463c-3.694,1.883-5,6.809-2.463,9.924a35.97,35.97,0,0,0,7.9,6.882c2.9,1.883,7.461,1.231,9.2-1.014a27.545,27.545,0,0,0,5.288-12.315C112.184,180.65,110.662,178.622,107.693,178.332Z" transform="translate(-19.152 -38.711)" fill="#08436a"/>
    <path id="Path_7910" data-name="Path 7910" d="M107.531,178.152l.072-.435a29.179,29.179,0,0,0-3.549-.217,32.181,32.181,0,0,0-4.564.29h0a28.005,28.005,0,0,0-7.534,2.535h0a7.588,7.588,0,0,0-4.057,6.519,6.539,6.539,0,0,0,1.376,4.057h0a34.831,34.831,0,0,0,7.968,6.954,7.821,7.821,0,0,0,4.2,1.159,7.209,7.209,0,0,0,5.578-2.318h0a29.338,29.338,0,0,0,5.36-12.532h0v-.145a7.039,7.039,0,0,0-1.231-4.491,4.666,4.666,0,0,0-3.622-1.811v.435l.072-.435-.072.435v.435a3.972,3.972,0,0,1,2.97,1.521,6.565,6.565,0,0,1,1.014,3.984v.145h.435l-.435-.072a28.069,28.069,0,0,1-5.216,12.17l.362.217-.362-.29a6.3,6.3,0,0,1-4.853,2.028,7.522,7.522,0,0,1-3.767-1.014,33.438,33.438,0,0,1-7.823-6.737h0a5.66,5.66,0,0,1-1.231-3.477,6.578,6.578,0,0,1,3.549-5.8h0A26.423,26.423,0,0,1,99.49,178.8l-.072-.435.072.435a30.518,30.518,0,0,1,4.491-.29,28.009,28.009,0,0,1,3.477.217h0Z" transform="translate(-18.99 -38.531)" fill="#fff"/>
    <path id="Path_7911" data-name="Path 7911" d="M94.072,60.569a17.266,17.266,0,0,0,11.083-4.057A9.164,9.164,0,0,0,107.4,45.574c-1.3-2.97-3.115-4.129-7.1-4.274-1.811.217-3.549.362-5.36.58a17.212,17.212,0,0,0-2.753.8c-4.491,1.521-7.606,3.839-6.3,9.707C86.683,56.44,88.856,60.569,94.072,60.569Z" transform="translate(-18.353 -0.992)" fill="#08436a"/>
    <path id="Path_7912" data-name="Path 7912" d="M93.882,60.458v.435a18.119,18.119,0,0,0,11.373-4.129l-.29-.29.29.362a9.086,9.086,0,0,0,3.26-7.1,10.96,10.96,0,0,0-.942-4.346,6.881,6.881,0,0,0-2.753-3.4A9.162,9.162,0,0,0,100.04,40.9h0c-1.811.217-3.549.362-5.36.58h0a18.079,18.079,0,0,0-2.825.8l.145.362-.145-.435a12.908,12.908,0,0,0-4.926,2.68,6.748,6.748,0,0,0-2.028,5,10.893,10.893,0,0,0,.29,2.535,13.551,13.551,0,0,0,2.608,5.8,7.712,7.712,0,0,0,6.085,2.753h0v-.942h0a6.7,6.7,0,0,1-5.433-2.463,11.93,11.93,0,0,1-2.39-5.433,9.757,9.757,0,0,1-.29-2.39,5.6,5.6,0,0,1,1.739-4.346,11.864,11.864,0,0,1,4.564-2.463h0a17.213,17.213,0,0,1,2.753-.8l-.072-.435.072.435c1.739-.29,3.549-.435,5.36-.58l-.072-.435v.435a8.533,8.533,0,0,1,4.346,1.014,6.53,6.53,0,0,1,2.39,3.042,9.457,9.457,0,0,1,.869,3.984,8.177,8.177,0,0,1-2.97,6.447h0a17.428,17.428,0,0,1-10.866,3.984h0Z" transform="translate(-18.163 -0.882)" fill="#fff"/>
    <path id="Path_7913" data-name="Path 7913" d="M130.441,121.135c2.97-.8,3.549-2.753,1.666-5.216a32.822,32.822,0,0,0-4.129-4.274,14.284,14.284,0,0,0-18.617-.217c-2.173,1.811-2.463,3.4-1.159,5.867,2.39,4.419,6.3,5.94,11.228,6.157C123.053,122.729,126.747,122.149,130.441,121.135Z" transform="translate(-24.37 -19.399)" fill="#08436a"/>
    <path id="Path_7914" data-name="Path 7914" d="M130.242,120.974l.145.435a5.46,5.46,0,0,0,2.246-1.159,2.63,2.63,0,0,0,.8-1.883,5.119,5.119,0,0,0-1.159-2.825h0a29.8,29.8,0,0,0-4.2-4.346l-.29.29.29-.29a14.525,14.525,0,0,0-9.707-3.694,14.771,14.771,0,0,0-9.489,3.477h0a8.687,8.687,0,0,0-1.594,1.739,3.59,3.59,0,0,0-.58,1.883,5.669,5.669,0,0,0,.8,2.68h0a11.2,11.2,0,0,0,4.853,4.853,16.758,16.758,0,0,0,6.737,1.594h.145c3.694-.724,7.461-1.3,11.083-2.318h0l-.072-.435-.145-.435c-3.622,1.014-7.316,1.594-11.011,2.318l.072.435v-.435a17.184,17.184,0,0,1-6.375-1.449,10.324,10.324,0,0,1-4.491-4.491h0a4.936,4.936,0,0,1-.724-2.318A2.612,2.612,0,0,1,108,113.15a5.233,5.233,0,0,1,1.376-1.521h0a13.812,13.812,0,0,1,8.91-3.26,14.025,14.025,0,0,1,9.2,3.477h0a28.3,28.3,0,0,1,4.129,4.2l.362-.29-.362.29a4.034,4.034,0,0,1,.942,2.246,1.573,1.573,0,0,1-.579,1.3,4.138,4.138,0,0,1-1.883.942h0Z" transform="translate(-24.172 -19.238)" fill="#fff"/>
    <path id="Path_7915" data-name="Path 7915" d="M132.814,55.431a14.85,14.85,0,0,0,3.549-1.231,87.3,87.3,0,0,0,8.765-5.8c2.246-1.883,1.883-3.622-.507-5.216a32.487,32.487,0,0,0-11.228-4.564c-4.057-.942-7.968,1.594-8.982,6.085A8.648,8.648,0,0,0,132.814,55.431Z" transform="translate(-28.989 -0.201)" fill="#08436a"/>
    <path id="Path_7916" data-name="Path 7916" d="M132.682,55.23l.145.435c.362-.145.942-.217,1.594-.435a9.961,9.961,0,0,0,2.1-.869h0a71.093,71.093,0,0,0,8.765-5.868,5.44,5.44,0,0,0,1.231-1.376,2.612,2.612,0,0,0,.435-1.449A2.9,2.9,0,0,0,146.373,44a6.248,6.248,0,0,0-1.594-1.449h0a33.95,33.95,0,0,0-11.373-4.636,7.144,7.144,0,0,0-1.739-.217c-3.622,0-6.809,2.535-7.751,6.664a10.9,10.9,0,0,0-.217,2.1,9.3,9.3,0,0,0,2.535,6.375,9.007,9.007,0,0,0,6.519,2.753h.145l-.217-.362V54.8a8.062,8.062,0,0,1-5.94-2.535,8.478,8.478,0,0,1-2.318-5.8,8.992,8.992,0,0,1,.217-1.956c.869-3.767,3.694-5.94,6.882-5.94a6.46,6.46,0,0,1,1.594.217A33.071,33.071,0,0,1,144.2,43.278h0a6,6,0,0,1,1.376,1.231,2.1,2.1,0,0,1,.435,1.159,1.981,1.981,0,0,1-.29,1.014,6.784,6.784,0,0,1-1.014,1.159,72.523,72.523,0,0,1-8.693,5.8h0a8.654,8.654,0,0,1-1.883.8c-.652.217-1.231.29-1.594.435l.145.362v0Z" transform="translate(-28.857)" fill="#fff"/>
    <path id="Path_7917" data-name="Path 7917" d="M59.709,156.294a5.019,5.019,0,0,0-2.825-2.463,41.323,41.323,0,0,0-5.36-1.231l-.072.362a35.224,35.224,0,0,0-3.912,0,4.714,4.714,0,0,0-4.057,5.288c0,.145.072.29.072.435.724,2.9,1.666,5.723,2.608,8.548,1.014,3.187,3.477,4.274,6.592,4.419a6.954,6.954,0,0,0,6.519-2.9C61.882,164.77,61.23,160.5,59.709,156.294Z" transform="translate(-6.735 -31.668)" fill="#08436a"/>
    <path id="Path_7918" data-name="Path 7918" d="M59.533,156.1l.362-.145a4.541,4.541,0,0,0-1.231-1.666,8,8,0,0,0-1.811-1.087h0a29.348,29.348,0,0,0-5.433-1.231l-.435-.072-.145.724.435.072v-.435c-.8,0-1.666-.072-2.463-.072a10.7,10.7,0,0,0-1.521.072h0a5.143,5.143,0,0,0-4.491,5.071,2.006,2.006,0,0,0,.072.652c0,.145.072.362.072.507h0c.724,2.9,1.666,5.723,2.608,8.548h0a5.956,5.956,0,0,0,2.68,3.549,9.156,9.156,0,0,0,4.274,1.159h.58a7.873,7.873,0,0,0,3.477-.724,6.687,6.687,0,0,0,2.753-2.39h0a11.156,11.156,0,0,0,1.956-6.375,18.772,18.772,0,0,0-1.376-6.519h0l-.362.362-.362.145a17.78,17.78,0,0,1,1.3,6.23,9.987,9.987,0,0,1-1.811,5.868h0a5.926,5.926,0,0,1-2.39,2.1,7.266,7.266,0,0,1-3.115.652h-.58a7.719,7.719,0,0,1-3.839-1.014,5.572,5.572,0,0,1-2.318-3.115h0c-.942-2.825-1.811-5.65-2.608-8.548l-.435.072.435-.072c0-.145-.072-.29-.072-.435,0-.217-.072-.362-.072-.58a4.356,4.356,0,0,1,3.767-4.274h0a8.767,8.767,0,0,1,1.376-.072c.8,0,1.666.072,2.463.072h.362l.145-.652-.435-.072-.072.435A37.775,37.775,0,0,1,56.563,154h0a9.172,9.172,0,0,1,1.594.942,3.2,3.2,0,0,1,1.014,1.3h0Z" transform="translate(-6.56 -31.475)" fill="#fff"/>
    <path id="Path_7919" data-name="Path 7919" d="M155.039,99.835a5.788,5.788,0,0,0-5.288,4.853,19.727,19.727,0,0,0-.217,6.519,5.856,5.856,0,0,0,5.288,4.781c1.159.072,2.318,0,3.549,0v-.072a35.231,35.231,0,0,0,3.912,0c2.173-.217,4.2-.942,4.781-3.332a15.856,15.856,0,0,0-.724-9.345,5.432,5.432,0,0,0-5.36-3.839C159.023,99.4,157.067,99.69,155.039,99.835Z" transform="translate(-35.929 -17.006)" fill="#08436a"/>
    <path id="Path_7920" data-name="Path 7920" d="M154.857,99.669l-.072-.435a5.871,5.871,0,0,0-3.767,1.666,6.825,6.825,0,0,0-1.883,3.477h0a18.64,18.64,0,0,0-.435,3.984c0,.869.072,1.811.145,2.68l.435-.072-.435.072a5.485,5.485,0,0,0,1.956,3.549,6.1,6.1,0,0,0,3.767,1.594h4.057v-.435h-.435v.435c.579,0,1.159.072,1.739.072.724,0,1.521,0,2.246-.072h0a8.127,8.127,0,0,0,3.187-.942,4.346,4.346,0,0,0,2.028-2.68h0a15.024,15.024,0,0,0,.435-3.622,15.845,15.845,0,0,0-1.159-6.012l-.362.145.362-.145a6.865,6.865,0,0,0-2.173-3.042,5.747,5.747,0,0,0-3.549-1.087h0c-2.028,0-4.057.29-6.012.435l-.072.435.072.435c2.028-.145,3.984-.435,5.94-.435h0a5.069,5.069,0,0,1,3.042.942,5.427,5.427,0,0,1,1.883,2.68h0a15.355,15.355,0,0,1,1.087,5.65,17.5,17.5,0,0,1-.362,3.4l.435.072-.435-.072a3.41,3.41,0,0,1-1.594,2.173,7.117,7.117,0,0,1-2.825.8l.072.435v-.435c-.724.072-1.449.072-2.173.072a13.959,13.959,0,0,1-1.739-.072h-.435v.507h.435v-.435h-3.549a5.5,5.5,0,0,1-3.26-1.376,4.6,4.6,0,0,1-1.666-2.97h0a15.318,15.318,0,0,1-.145-2.535,22.951,22.951,0,0,1,.362-3.839l-.435-.072.435.072a6.5,6.5,0,0,1,1.666-3.115,5.244,5.244,0,0,1,3.26-1.449Z" transform="translate(-35.748 -16.84)" fill="#fff"/>
    <path id="Path_7921" data-name="Path 7921" d="M152.192,150.111c2.608.435,5.723.942,7.171-2.173a54.059,54.059,0,0,0,3.115-8.91,5.283,5.283,0,0,0-3.115-6.809c-2.68-1.159-5.433-.8-8.113,0-4.491,1.376-5.288,2.535-5.65,7.171.507,2.028,1.087,4.129,1.521,6.157C147.7,148.372,149.729,149.676,152.192,150.111Z" transform="translate(-34.893 -25.847)" fill="#08436a"/>
    <path id="Path_7922" data-name="Path 7922" d="M152.054,149.951l-.072.435a19.581,19.581,0,0,0,2.97.362,5.489,5.489,0,0,0,2.608-.579A4.588,4.588,0,0,0,159.588,148h0a68.914,68.914,0,0,0,3.187-8.91,7.112,7.112,0,0,0,.362-2.1,5.644,5.644,0,0,0-.942-3.115,7.655,7.655,0,0,0-2.753-2.173,9.364,9.364,0,0,0-3.839-.8,14.413,14.413,0,0,0-4.564.8h0a15.4,15.4,0,0,0-2.825,1.087,4.639,4.639,0,0,0-2.318,2.39,13.33,13.33,0,0,0-.8,4.057v.145c.507,2.1,1.087,4.129,1.521,6.157a5.705,5.705,0,0,0,1.956,3.4,7.138,7.138,0,0,0,3.477,1.449v-.435l.072-.435a6.756,6.756,0,0,1-3.042-1.231,4.991,4.991,0,0,1-1.666-2.9c-.435-2.1-1.014-4.129-1.521-6.23l-.435.072h.435c.145-2.318.435-3.694,1.159-4.564a5.371,5.371,0,0,1,1.521-1.231,15.055,15.055,0,0,1,2.68-1.014h0a15.11,15.11,0,0,1,4.274-.724,8.894,8.894,0,0,1,3.549.724,4.906,4.906,0,0,1,2.39,1.883,4.621,4.621,0,0,1,.8,2.608,5.547,5.547,0,0,1-.29,1.811,66.907,66.907,0,0,1-3.115,8.837h0a3.733,3.733,0,0,1-1.666,1.811,4.459,4.459,0,0,1-2.246.435,18.681,18.681,0,0,1-2.825-.29Z" transform="translate(-34.755 -25.688)" fill="#fff"/>
    <path id="Path_7923" data-name="Path 7923" d="M167.87,81.877a7.792,7.792,0,0,0,5.505-7.751,9.954,9.954,0,0,0-6.447-9.345,8,8,0,0,0-10.069,3.694c-1.521,3.042-.145,9.852,2.463,12.315C161.93,83.326,164.9,82.964,167.87,81.877Z" transform="translate(-37.822 -7.306)" fill="#08436a"/>
    <path id="Path_7924" data-name="Path 7924" d="M167.725,81.737l.145.362a8.909,8.909,0,0,0,4.274-3.187,8.753,8.753,0,0,0,1.449-4.926h0a10.383,10.383,0,0,0-6.664-9.707h0a7.908,7.908,0,0,0-3.115-.58,8.4,8.4,0,0,0-7.461,4.491h0a7.593,7.593,0,0,0-.652,3.549,15.976,15.976,0,0,0,.869,5.143,10.9,10.9,0,0,0,2.39,4.129,6.9,6.9,0,0,0,4.926,2.028,11.323,11.323,0,0,0,4.057-.869h0l-.217-.435-.145-.362a10.349,10.349,0,0,1-3.767.8,6.11,6.11,0,0,1-4.346-1.739,8.922,8.922,0,0,1-2.173-3.767,16.792,16.792,0,0,1-.869-4.926,8.084,8.084,0,0,1,.58-3.187l-.362-.217.362.217a7.692,7.692,0,0,1,6.737-4.057,6.588,6.588,0,0,1,2.825.58l.145-.362-.145.362a9.667,9.667,0,0,1,6.157,8.982h0a7.64,7.64,0,0,1-1.3,4.491,8.2,8.2,0,0,1-3.912,2.9h0Z" transform="translate(-37.677 -7.166)" fill="#fff"/>
    <path id="Path_7925" data-name="Path 7925" d="M64.322,79.051c2.463-2.173,2.753-4.636.579-7.1a46.529,46.529,0,0,0-6.592-5.94,4.7,4.7,0,0,0-6.012.145,13.384,13.384,0,0,0-4.926,7.461c-.652,2.318-.507,4.781,1.739,6.157a37.407,37.407,0,0,0,6.23,2.753C59.034,81.876,62,81.079,64.322,79.051Z" transform="translate(-7.726 -7.522)" fill="#08436a"/>
    <path id="Path_7926" data-name="Path 7926" d="M64.175,78.888l.29.29a5.584,5.584,0,0,0,2.173-4.057A5.267,5.267,0,0,0,65.044,71.5h0a47.607,47.607,0,0,0-6.664-6.012h0A5.417,5.417,0,0,0,55.265,64.4a5.12,5.12,0,0,0-3.332,1.231h0a13.531,13.531,0,0,0-5.071,7.678l.435.072-.435-.145a9.043,9.043,0,0,0-.362,2.318,5.459,5.459,0,0,0,.507,2.39,4.772,4.772,0,0,0,1.739,1.883,50.432,50.432,0,0,0,6.3,2.825l.145.072h.145c3.694-.652,6.737-1.449,9.2-3.622h0l-.362-.217-.29-.29c-2.246,2.028-5.143,2.753-8.765,3.4l.072.435.145-.362c-1.739-.869-4.129-1.594-6.157-2.825a4.119,4.119,0,0,1-1.449-1.521A4.627,4.627,0,0,1,47.3,75.7a11.231,11.231,0,0,1,.29-2.1h0a13,13,0,0,1,4.781-7.244h0a4.924,4.924,0,0,1,2.825-1.087,4.28,4.28,0,0,1,2.608.942h0a41.892,41.892,0,0,1,6.519,5.868h0a4.106,4.106,0,0,1-.507,6.519h0Z" transform="translate(-7.579 -7.359)" fill="#fff"/>
    <path id="Path_7927" data-name="Path 7927" d="M190.765,142.914a5.235,5.235,0,0,0-8.4,2.246,58.651,58.651,0,0,0-1.666,6.375c-.217,5.505,3.477,7.534,7.316,6.809a58.751,58.751,0,0,0,7.678-2.39,6.53,6.53,0,0,0,2.028-1.449c1.666-1.594,1.811-3.26.217-4.926A69.154,69.154,0,0,0,190.765,142.914Z" transform="translate(-44.564 -28.647)" fill="#08436a"/>
    <path id="Path_7928" data-name="Path 7928" d="M190.631,142.739l.29-.362A6.1,6.1,0,0,0,187.082,141a5.538,5.538,0,0,0-5.216,3.767,51.668,51.668,0,0,0-1.666,6.375v.579a7.437,7.437,0,0,0,1.883,5.288,6.182,6.182,0,0,0,4.419,1.739,10.808,10.808,0,0,0,1.521-.145,48.214,48.214,0,0,0,7.751-2.463h0a7.378,7.378,0,0,0,2.173-1.521l-.29-.29.29.29a4.011,4.011,0,0,0,1.449-2.9,3.68,3.68,0,0,0-1.231-2.608l-.29.29.29-.29a69.152,69.152,0,0,0-7.171-6.664h0l-.362.29-.29.362a60.533,60.533,0,0,1,7.027,6.592h0a2.858,2.858,0,0,1,1.014,2.028,3.233,3.233,0,0,1-1.159,2.246h0a6.029,6.029,0,0,1-1.883,1.376l.145.362-.145-.362a43.884,43.884,0,0,1-7.606,2.39,8.874,8.874,0,0,1-1.376.145,5.49,5.49,0,0,1-3.839-1.449,6.172,6.172,0,0,1-1.594-4.636v-.435h-.435l.435.072a53.355,53.355,0,0,1,1.666-6.3,4.732,4.732,0,0,1,4.419-3.26,4.971,4.971,0,0,1,3.26,1.231l.362-.362-.29.362Z" transform="translate(-44.429 -28.471)" fill="#fff"/>
    <path id="Path_7929" data-name="Path 7929" d="M37.7,134.111a61.057,61.057,0,0,0,7.678,4.274,3.84,3.84,0,0,0,2.39.145c2.463-.507,6.447-5,6.664-7.461a2.905,2.905,0,0,0-.362-1.956,16.836,16.836,0,0,0-9.489-6.012c-3.694,0-6.012,1.956-7.823,5.868C35.747,131,35.892,132.952,37.7,134.111Z" transform="translate(-4.722 -23.538)" fill="#08436a"/>
    <path id="Path_7930" data-name="Path 7930" d="M37.528,133.945l-.217.362a67.529,67.529,0,0,0,7.751,4.274h0a4.129,4.129,0,0,0,1.594.29,4.891,4.891,0,0,0,1.014-.145l-.072-.435.072.435a6.12,6.12,0,0,0,2.173-1.087,16.6,16.6,0,0,0,3.187-3.187A8.677,8.677,0,0,0,54.7,130.9h0V130.4a2.58,2.58,0,0,0-.507-1.739h0a17.218,17.218,0,0,0-9.707-6.157h-.145a7.619,7.619,0,0,0-4.853,1.521,11.332,11.332,0,0,0-3.332,4.564h0a5.5,5.5,0,0,0-.652,2.535,3.811,3.811,0,0,0,1.739,3.187h0l.29-.362.217-.362a2.958,2.958,0,0,1-1.376-2.535,5.42,5.42,0,0,1,.58-2.173h0a11.747,11.747,0,0,1,3.115-4.2A6.783,6.783,0,0,1,44.41,123.3v-.435l-.072.435a16.453,16.453,0,0,1,9.272,5.868h0a2.557,2.557,0,0,1,.29,1.231v.435h0a5.831,5.831,0,0,1-.8,1.956,16.405,16.405,0,0,1-2.68,3.332,7.4,7.4,0,0,1-2.9,1.811h0a2.972,2.972,0,0,1-.8.072,4.1,4.1,0,0,1-1.3-.217l-.145.362.217-.362a71.3,71.3,0,0,1-7.678-4.2h0Z" transform="translate(-4.548 -23.372)" fill="#fff"/>
    <path id="Path_7931" data-name="Path 7931" d="M139.083,162.1c-7.389.579-10.938,4.564-11.59,11.011-.145,1.449.58,2.1,2.1,2.173a18.524,18.524,0,0,1,5.723.652c3.839,1.449,6.3-.145,8.33-3.115,1.449-2.1,2.68-4.419,1.159-7.1C143.357,163.331,141.4,162.1,139.083,162.1Z" transform="translate(-29.898 -34.287)" fill="#08436a"/>
    <path id="Path_7932" data-name="Path 7932" d="M138.925,161.852v-.435c-3.767.29-6.592,1.449-8.62,3.4a13,13,0,0,0-3.4,7.968h0v.362a1.915,1.915,0,0,0,.724,1.666,2.851,2.851,0,0,0,1.811.579,20.219,20.219,0,0,1,5.65.58,8.547,8.547,0,0,0,2.825.58,5.616,5.616,0,0,0,3.4-1.087,9.54,9.54,0,0,0,2.608-2.753h0a8.921,8.921,0,0,0,1.883-4.853,5.185,5.185,0,0,0-.8-2.753h0a8.5,8.5,0,0,0-2.608-2.9A6.253,6.253,0,0,0,139,161.2h0l-.072.652v.435a5.287,5.287,0,0,1,2.97.869,7.211,7.211,0,0,1,2.318,2.535h0a4.359,4.359,0,0,1,.652,2.318,8.258,8.258,0,0,1-1.739,4.346h0a9.968,9.968,0,0,1-2.318,2.535,5.12,5.12,0,0,1-2.9.942,7.141,7.141,0,0,1-2.535-.507c-1.883-.724-3.984-.579-5.868-.652a1.865,1.865,0,0,1-1.3-.362,1.314,1.314,0,0,1-.362-1.014v-.29h0a11.424,11.424,0,0,1,3.115-7.461c1.811-1.811,4.419-2.9,8.113-3.187l-.145-.507v0Z" transform="translate(-29.739 -34.039)" fill="#fff"/>
    <path id="Path_7933" data-name="Path 7933" d="M51.633,109.715c.869.072,1.811,0,2.68,0v.072a28.132,28.132,0,0,0,3.477-.29,2.337,2.337,0,0,0,2.173-2.608,23.14,23.14,0,0,0-.724-5.071c-1.159-4.057-7.606-6.954-11.518-5.216a3.259,3.259,0,0,0-1.666,2.1,22.253,22.253,0,0,0-.362,4.926A6.14,6.14,0,0,0,51.633,109.715Z" transform="translate(-7.352 -16.093)" fill="#08436a"/>
    <path id="Path_7934" data-name="Path 7934" d="M51.5,109.553l-.072.435c.29,0,.652.072.942.072h1.811v-.435h-.435v.507h.435a29.3,29.3,0,0,0,3.549-.29h0a3.85,3.85,0,0,0,1.811-.869,2.624,2.624,0,0,0,.724-1.883v-.29h0a25.829,25.829,0,0,0-.724-5.216h0a8.071,8.071,0,0,0-3.622-4.346,10.972,10.972,0,0,0-5.65-1.739,6.179,6.179,0,0,0-2.825.58h0A3.756,3.756,0,0,0,45.562,98.4h0a23.965,23.965,0,0,0-.362,3.984v1.087h0a6.431,6.431,0,0,0,6.3,6.447v-.362l.072-.435a5.566,5.566,0,0,1-5.433-5.723h0v-1.014a22.951,22.951,0,0,1,.362-3.839l-.435-.072.435.145A2.811,2.811,0,0,1,47.953,96.8l-.217-.362.145.362a5.559,5.559,0,0,1,2.463-.507,9.98,9.98,0,0,1,5.216,1.594,7.451,7.451,0,0,1,3.26,3.839h0a28.669,28.669,0,0,1,.724,5h0v.217a1.643,1.643,0,0,1-.507,1.3,2.755,2.755,0,0,1-1.3.652l.072.435-.072-.435c-1.159.145-2.318.217-3.477.29v.435h.362v-.507H51.5Z" transform="translate(-7.221 -15.931)" fill="#fff"/>
    <path id="Path_7935" data-name="Path 7935" d="M80.974,168.742c2.68,1.956,7.171.724,10-2.535,1.956-2.246,1.883-4.636-.435-6.519a14.572,14.572,0,0,0-7.823-3.187c-3.549,0-5.94,1.449-6.012,3.477A10.3,10.3,0,0,0,80.974,168.742Z" transform="translate(-15.903 -32.743)" fill="#08436a"/>
    <path id="Path_7936" data-name="Path 7936" d="M80.836,168.549l-.217.362a5.347,5.347,0,0,0,3.332,1.014,9.791,9.791,0,0,0,7.244-3.622h0a5.423,5.423,0,0,0,1.449-3.477,4.856,4.856,0,0,0-1.956-3.694h0a15.479,15.479,0,0,0-8.041-3.332h0a9.454,9.454,0,0,0-4.564,1.014,3.312,3.312,0,0,0-1.883,2.825h0v.145a10.887,10.887,0,0,0,4.346,9.055h0l.29-.29.217-.362A9.876,9.876,0,0,1,77,159.857v-.145h0a2.561,2.561,0,0,1,1.449-2.1,8.092,8.092,0,0,1,4.129-.942v-.435l-.072.435a13.935,13.935,0,0,1,7.534,3.115h0a3.868,3.868,0,0,1,1.666,3.042,4.513,4.513,0,0,1-1.3,2.9h0a9.272,9.272,0,0,1-6.592,3.332,4.674,4.674,0,0,1-2.825-.869h0Z" transform="translate(-15.765 -32.55)" fill="#fff"/>
    <path id="Path_7937" data-name="Path 7937" d="M34.029,173.968c-1.739-1.159-3.767-1.739-5.8-.217a11.152,11.152,0,0,0-4.346,8.186c-.29,2.535,1.376,3.984,4.129,3.984l.217.507c3.187-1.087,6.375-2.028,9.417-3.4,2.1-.942,2.463-3.042.942-4.853A19.343,19.343,0,0,0,34.029,173.968Z" transform="translate(-1.338 -37.245)" fill="#08436a"/>
    <path id="Path_7938" data-name="Path 7938" d="M33.876,173.794l.217-.362a5.927,5.927,0,0,0-3.4-1.231,4.377,4.377,0,0,0-2.825,1.014h0a11.5,11.5,0,0,0-4.564,8.475h0v.579a3.408,3.408,0,0,0,1.3,2.825,5.15,5.15,0,0,0,3.26,1.014h.072v-.435l-.362.145.217.507.145.435.435-.145c3.115-1.087,6.375-2.028,9.489-3.4h0a3.933,3.933,0,0,0,1.594-1.231,2.947,2.947,0,0,0,.58-1.739,4.041,4.041,0,0,0-1.014-2.535h0a25.991,25.991,0,0,0-4.636-4.274h0l-.507.362-.217.362a23.961,23.961,0,0,1,4.491,4.057h0a3.13,3.13,0,0,1,.869,2.028,2.442,2.442,0,0,1-.362,1.231,2.794,2.794,0,0,1-1.231.942h0a96.558,96.558,0,0,1-9.417,3.4l.145.362.362-.145-.217-.507-.072-.29h-.362a4.442,4.442,0,0,1-2.753-.8,2.779,2.779,0,0,1-.942-2.173v-.507h0a10.778,10.778,0,0,1,4.2-7.9h0a4.049,4.049,0,0,1,2.39-.869,5.545,5.545,0,0,1,2.97,1.087h0Z" transform="translate(-1.185 -37.07)" fill="#fff"/>
    <path id="Path_7939" data-name="Path 7939" d="M223.315,173.3a38.885,38.885,0,0,0-6.592-2.1l-.145.507h-1.883c-4.564.145-6.3,3.115-3.984,6.954a9.077,9.077,0,0,0,12.677,3.042C226.936,179.6,226.864,175.112,223.315,173.3Z" transform="translate(-52.556 -36.795)" fill="#08436a"/>
    <path id="Path_7940" data-name="Path 7940" d="M223.181,173.08l.217-.362c-2.1-1.087-4.491-1.449-6.664-2.173l-.435-.145-.29.942.435.145v-.435H214.56a6.777,6.777,0,0,0-3.912,1.159,3.743,3.743,0,0,0-1.449,3.042,6.886,6.886,0,0,0,1.087,3.4,9.442,9.442,0,0,0,8.113,4.636,10.706,10.706,0,0,0,5.216-1.449,5.358,5.358,0,0,0,2.753-4.564,5.2,5.2,0,0,0-2.9-4.564h0l-.29.362-.217.362a4.271,4.271,0,0,1,2.463,3.839,4.493,4.493,0,0,1-2.39,3.839,9.086,9.086,0,0,1-4.781,1.376,8.652,8.652,0,0,1-7.389-4.2,5.873,5.873,0,0,1-.942-2.97,2.853,2.853,0,0,1,1.159-2.39,5.934,5.934,0,0,1,3.4-1.014v0h2.173l.29-.8-.435-.145-.145.435a36.135,36.135,0,0,1,6.519,2.1h0Z" transform="translate(-52.422 -36.574)" fill="#fff"/>
    <path id="Path_7941" data-name="Path 7941" d="M182.013,128.536a3.389,3.389,0,0,0,1.231.145l.145.435c2.753-.869,5.65-1.666,8.33-2.753a2.6,2.6,0,0,0,1.594-3.4,41.964,41.964,0,0,0-3.4-6.085,2.775,2.775,0,0,0-2.608-.435,48.471,48.471,0,0,0-7.534,5.8,5.094,5.094,0,0,0-1.3,4.2C178.754,127.377,180.709,127.884,182.013,128.536Z" transform="translate(-43.925 -21.657)" fill="#08436a"/>
    <path id="Path_7942" data-name="Path 7942" d="M181.829,128.349l-.145.435a3.19,3.19,0,0,0,1.159.145h.145v-.435l-.362.145.145.435.145.362.362-.145c2.753-.869,5.65-1.666,8.4-2.753h0a3.1,3.1,0,0,0,2.028-2.825,3.281,3.281,0,0,0-.217-1.159,34.433,34.433,0,0,0-3.477-6.157,2.08,2.08,0,0,0-.942-.579,3.281,3.281,0,0,0-1.159-.217,2.907,2.907,0,0,0-1.087.217,58.56,58.56,0,0,0-7.606,5.8h0a5.964,5.964,0,0,0-1.521,3.767,1.837,1.837,0,0,0,.145.869h0a1.978,1.978,0,0,0,.652.869,6.1,6.1,0,0,0,1.521.8,8.122,8.122,0,0,1,1.594.724h.072l.145-.29.217-.362c-.652-.362-1.521-.652-2.173-.942a2.5,2.5,0,0,1-.869-.507.965.965,0,0,1-.362-.435h0a1.607,1.607,0,0,1-.072-.652,5.335,5.335,0,0,1,.362-1.739,5.479,5.479,0,0,1,.869-1.449h0a52.243,52.243,0,0,1,7.461-5.723.936.936,0,0,1,.579-.145,4.24,4.24,0,0,1,.942.145c.29.072.507.217.507.29a37.079,37.079,0,0,1,3.4,5.94,1.7,1.7,0,0,1,.145.8,2.221,2.221,0,0,1-1.521,2.028h0c-2.68,1.087-5.505,1.811-8.33,2.753l.145.435.362-.145-.145-.435-.072-.29h-.435a4.239,4.239,0,0,1-.942-.145l-.072.58.217-.362Z" transform="translate(-43.74 -21.471)" fill="#fff"/>
    <path id="Path_7943" data-name="Path 7943" d="M116.43,166.87a21.65,21.65,0,0,1-13.111-2.173c-1.231-.652-1.666-.072-1.883,1.159a22.746,22.746,0,0,1-1.594,4.2c-.217.58-.507,1.159-.942,2.1,2.1-.29,3.622-.435,5.143-.652,3.694-.435,7.316-.579,10.648,1.449.869.58,1.594.507,1.883-.652.362-1.3.8-2.68,1.087-3.984C118.024,167.3,117.806,166.653,116.43,166.87Z" transform="translate(-22.022 -34.928)" fill="#08436a"/>
    <path id="Path_7944" data-name="Path 7944" d="M116.182,166.7l-.072-.435a24.386,24.386,0,0,1-3.187.217,19.71,19.71,0,0,1-9.634-2.318,2.155,2.155,0,0,0-1.087-.362,1.365,1.365,0,0,0-.579.145,1.649,1.649,0,0,0-.58.652,3.587,3.587,0,0,0-.29.942h0a31.684,31.684,0,0,1-1.521,4.129h0c-.217.579-.507,1.087-.942,2.1l-.29.652.724-.072c2.1-.29,3.622-.435,5.143-.652h0a32.838,32.838,0,0,1,3.767-.217,12.183,12.183,0,0,1,6.664,1.666h0a2.543,2.543,0,0,0,1.159.435,1.336,1.336,0,0,0,.869-.362,2.29,2.29,0,0,0,.507-.942h0c.362-1.3.8-2.68,1.087-3.984h0a3.737,3.737,0,0,0,.145-.8,1.112,1.112,0,0,0-.362-.942,1.779,1.779,0,0,0-1.087-.362h-.435v.507l.072.435h.362a.693.693,0,0,1,.507.145c.072.072.072.145.072.362a1.8,1.8,0,0,1-.072.58h0c-.362,1.3-.724,2.68-1.087,3.984h0a1.387,1.387,0,0,1-.29.579c-.072.072-.145.072-.29.072a1.343,1.343,0,0,1-.724-.29h0a13.317,13.317,0,0,0-7.1-1.811,34.233,34.233,0,0,0-3.839.29h0c-1.521.217-3.115.362-5.143.652l.072.435.362.145c.435-1.014.724-1.521.942-2.173h0a37.243,37.243,0,0,0,1.594-4.274h0a2.318,2.318,0,0,1,.362-.942l.145-.145c.072,0,.072-.072.145-.072a1.668,1.668,0,0,1,.652.217,20.627,20.627,0,0,0,10,2.463,26.592,26.592,0,0,0,3.332-.217Z" transform="translate(-21.774 -34.755)" fill="#fff"/>
    <path id="Path_7945" data-name="Path 7945" d="M217.939,161.373a37.445,37.445,0,0,0,5.071-1.521,2.9,2.9,0,0,0,1.376-2.028c.435-3.042-1.666-5.65-5.071-6.157-2.535-.435-4.346.724-5.433,3.984C212.506,159.78,213.52,161.084,217.939,161.373Z" transform="translate(-53.555 -31.387)" fill="#08436a"/>
    <path id="Path_7946" data-name="Path 7946" d="M217.8,161.214l.145.435a46.049,46.049,0,0,0,5.143-1.521h0a2.9,2.9,0,0,0,1.087-1.014,3.3,3.3,0,0,0,.579-1.376h0a3.249,3.249,0,0,0,.072-.8A5.483,5.483,0,0,0,223.3,153.1a7,7,0,0,0-3.984-2.028,5.131,5.131,0,0,0-1.014-.072,4.239,4.239,0,0,0-2.9,1.087,7.806,7.806,0,0,0-1.956,3.26h0a11.089,11.089,0,0,0-.652,2.97,3.243,3.243,0,0,0,.29,1.449,3.148,3.148,0,0,0,1.666,1.376,10.486,10.486,0,0,0,2.97.507h.145l-.072-.435v-.435a7.833,7.833,0,0,1-3.332-.724,2.055,2.055,0,0,1-.652-.724,2.419,2.419,0,0,1-.217-1.087,9.432,9.432,0,0,1,.579-2.68h0a6.364,6.364,0,0,1,1.666-2.9,3.47,3.47,0,0,1,2.39-.869,3.527,3.527,0,0,1,.869.072,5.7,5.7,0,0,1,3.477,1.739,4.863,4.863,0,0,1,1.3,3.26,2.717,2.717,0,0,1-.072.724h0a2.378,2.378,0,0,1-.435,1.014,1.479,1.479,0,0,1-.724.652h0a51.806,51.806,0,0,1-5.071,1.521l.217.435v0Z" transform="translate(-53.415 -31.227)" fill="#fff"/>
    <path id="Path_7947" data-name="Path 7947" d="M57.2,145.4a8.306,8.306,0,0,0,2.246.8c3.549.652,6.085,2.39,7.244,5.94a7.756,7.756,0,0,0,.942,1.521,33.98,33.98,0,0,1,3.332-3.622c1.521-1.159,1.087-1.956-.217-2.535-3.477-1.521-5.36-4.419-6.664-7.823-.724-1.811-1.376-1.811-2.535-.217L58.5,143.367C58.069,144.091,57.635,144.743,57.2,145.4Z" transform="translate(-10.529 -27.723)" fill="#08436a"/>
    <path id="Path_7948" data-name="Path 7948" d="M56.9,145.234l-.217.362a12.713,12.713,0,0,0,2.318.869h0a9.1,9.1,0,0,1,4.346,1.811,8.251,8.251,0,0,1,2.608,3.839h0a5.983,5.983,0,0,0,1.014,1.594l.29.435.362-.362a27.348,27.348,0,0,1,3.26-3.549h0a2.755,2.755,0,0,0,.8-.8,1.392,1.392,0,0,0,.29-.869,1.437,1.437,0,0,0-.435-.942,6.164,6.164,0,0,0-1.014-.652h0c-3.332-1.521-5.143-4.2-6.447-7.606h0a5.706,5.706,0,0,0-.58-1.159,1.238,1.238,0,0,0-.942-.507,1.526,1.526,0,0,0-.942.362,3.71,3.71,0,0,0-.869.942h0l-3.042,3.912h0c-.507.652-.869,1.3-1.3,1.956l-.29.435.435.217.362-.29.362.217c.435-.652.8-1.3,1.231-1.956l-.362-.217.362.29,3.042-3.912h0a4.105,4.105,0,0,1,.724-.8c.217-.145.29-.217.362-.217s.145,0,.29.217a4.983,4.983,0,0,1,.507.942h0c1.376,3.4,3.26,6.447,6.882,8.041h0a2.091,2.091,0,0,1,.724.435.662.662,0,0,1,.217.362.468.468,0,0,1-.145.362l-.652.652h0a33.577,33.577,0,0,0-3.4,3.622l.29.29.362-.29a5.922,5.922,0,0,1-.869-1.449l-.362.145.435-.145a8.676,8.676,0,0,0-2.9-4.274,10.189,10.189,0,0,0-4.708-1.956l-.072.435.145-.435a10.471,10.471,0,0,1-2.1-.8l-.362.435.362.217Z" transform="translate(-10.225 -27.562)" fill="#fff"/>
    <path id="Path_7949" data-name="Path 7949" d="M26.162,145.044c-2.608-.58-4.708.579-5.8,3.187-1.811,4.491-.942,5.723,3.839,5.94a17.077,17.077,0,0,0,4.419-.8,4.71,4.71,0,0,0,2.318-2.825C31.378,148.449,28.553,145.551,26.162,145.044Z" transform="translate(-0.136 -29.546)" fill="#08436a"/>
    <path id="Path_7950" data-name="Path 7950" d="M26.027,144.88l.072-.435a8.876,8.876,0,0,0-1.376-.145,4.492,4.492,0,0,0-2.9.942,5.416,5.416,0,0,0-1.956,2.68A9.663,9.663,0,0,0,19,151.4a2.317,2.317,0,0,0,.362,1.376,2.863,2.863,0,0,0,1.739,1.231,15.254,15.254,0,0,0,3.042.435h.145c1.449-.217,3.115-.145,4.564-.869h0a4.529,4.529,0,0,0,1.594-1.3,4.832,4.832,0,0,0,.942-1.811h0c0-.145.072-.362.072-.507a5.42,5.42,0,0,0-1.666-3.4,7.286,7.286,0,0,0-3.477-2.1l-.29.435-.072.435A6.694,6.694,0,0,1,29,147.125a4.453,4.453,0,0,1,1.449,2.825v.362l.435.072-.435-.072a3.243,3.243,0,0,1-.8,1.449,4.535,4.535,0,0,1-1.3,1.087h0a14.957,14.957,0,0,1-4.274.8l.072.435v-.435a8.461,8.461,0,0,1-3.4-.652,1.153,1.153,0,0,1-.652-.652,1.812,1.812,0,0,1-.217-.942,9.17,9.17,0,0,1,.869-3.187,5.807,5.807,0,0,1,1.666-2.318,4.01,4.01,0,0,1,2.463-.8,6.339,6.339,0,0,1,1.159.145Z" transform="translate(0 -29.381)" fill="#fff"/>
    <path id="Path_7951" data-name="Path 7951" d="M77.087,184.042a36.873,36.873,0,0,0-5.8-3.042c-1.376.58-2.535.724-3.115,1.449-1.3,1.594-.29,5.65,1.666,6.23a14.282,14.282,0,0,0,5.8.579,3.231,3.231,0,0,0,2.318-2.1A3.389,3.389,0,0,0,77.087,184.042Z" transform="translate(-13.393 -39.496)" fill="#08436a"/>
    <path id="Path_7952" data-name="Path 7952" d="M76.952,183.877l.217-.362a41.093,41.093,0,0,0-5.867-3.042l-.145-.072-.145.072a14.1,14.1,0,0,1-1.811.652,3.244,3.244,0,0,0-1.449.869h0a3.43,3.43,0,0,0-.652,2.246,6.454,6.454,0,0,0,.652,2.825,3.43,3.43,0,0,0,1.883,1.883h0a16.669,16.669,0,0,0,4.636.652,7.87,7.87,0,0,0,1.3-.072v0a3.381,3.381,0,0,0,1.666-.869,3.324,3.324,0,0,0,1.087-1.594h0a2.006,2.006,0,0,0,.072-.652,7.326,7.326,0,0,0-.29-1.666,3.433,3.433,0,0,0-.869-1.3l-.29.435-.217.362a1.912,1.912,0,0,1,.579.942,4.548,4.548,0,0,1,.217,1.376,1.074,1.074,0,0,1-.072.507h0a2.1,2.1,0,0,1-.8,1.087,2.74,2.74,0,0,1-1.159.652h0c-.435,0-.869.072-1.231.072a15.545,15.545,0,0,1-4.419-.652l-.145.435.145-.435a2.7,2.7,0,0,1-1.376-1.449,5.85,5.85,0,0,1-.58-2.463,2.5,2.5,0,0,1,.507-1.739h0a1.853,1.853,0,0,1,1.087-.579c.507-.217,1.159-.362,1.883-.724l-.145-.362-.217.362a35.537,35.537,0,0,1,5.723,2.97Z" transform="translate(-13.257 -39.331)" fill="#fff"/>
    <path id="Path_7953" data-name="Path 7953" d="M71.7,167.4c-.724,2.463-1.376,4.564-2.1,6.737l7.389,1.449Z" transform="translate(-13.946 -35.748)" fill="#08436a"/>
    <path id="Path_7954" data-name="Path 7954" d="M71.48,167.014l-.435-.145c-.724,2.463-1.376,4.564-2.1,6.737l-.145.435,8.837,1.739L71.335,166l-.29.869.435.145-.362.217L75.9,174.62l-6.375-1.231-.072.435.435.145c.652-2.246,1.3-4.274,2.1-6.737l-.507-.217-.362.217Z" transform="translate(-13.726 -35.362)" fill="#fff"/>
    <path id="Path_7955" data-name="Path 7955" d="M156.9,165.822c1.159-1.159,2.173-2.39,3.26-3.622l-.29-.507c-1.666,0-3.4-.072-5.071.072-.29,0-.869.724-.8.869a17.267,17.267,0,0,0,1.666,3.26A1.49,1.49,0,0,0,156.9,165.822Z" transform="translate(-37.206 -34.17)" fill="#08436a"/>
    <path id="Path_7956" data-name="Path 7956" d="M156.732,165.664l.29.29c1.159-1.159,2.173-2.39,3.26-3.622l.217-.217-.507-1.014h-2.9c-.8,0-1.666,0-2.463.072v0a1.047,1.047,0,0,0-.507.145,3.151,3.151,0,0,0-.507.435.376.376,0,0,0-.145.29c-.072.072-.072.145-.072.362v.145h0a29.106,29.106,0,0,0,1.739,3.332h0c.072.145.145.145.217.217a2.115,2.115,0,0,0,.652.145,1.233,1.233,0,0,0,.507-.072,2.631,2.631,0,0,0,.507-.217h0l-.29-.29-.29-.29.072.072-.072-.072h0l.072.072-.072-.072h0a3.138,3.138,0,0,1-.362.072h-.29l-.072.217.145-.145-.072-.072-.072.217.145-.145-.362.217.362-.217a26.655,26.655,0,0,1-1.666-3.187l-.362.145.362-.145-.29.145h.362v-.145l-.29.145h0l.217.072v-.072h-.217l.217.072h0a2.833,2.833,0,0,1,.29-.362l.145-.145h.072l-.072-.145v.145h.072l-.072-.145v.145h0c.8-.072,1.594-.072,2.463-.072H159.7v-.435l-.362.217.29.507.362-.217-.29-.29c-1.087,1.231-2.1,2.463-3.26,3.549l.29.362-.29-.29Z" transform="translate(-37.043 -34.011)" fill="#fff"/>
    <path id="Path_7957" data-name="Path 7957" d="M114.519,99.7A22.947,22.947,0,0,0,113,102.67c-.072.29.507.8,1.014,1.449l3.477-2.028Z" transform="translate(-25.906 -17.088)" fill="#08436a"/>
    <path id="Path_7958" data-name="Path 7958" d="M114.328,99.48l-.362-.217a29.936,29.936,0,0,0-1.594,3.042h0l-.072.217a1.047,1.047,0,0,0,.145.507c.145.217.29.362.435.58a4.141,4.141,0,0,0,.507.579l.217.29,4.346-2.535L114.111,98.9l-.217.435.435.145-.29.362L116.5,101.8l-2.97,1.739.217.362.362-.217a4.594,4.594,0,0,0-.724-.869,1,1,0,0,0-.217-.29v-.072h0l-.145.072h.145v-.072l-.145.072h-.072l.217.072v-.072h-.217l.217.072-.362-.145.362.145a22.075,22.075,0,0,1,1.521-2.9l-.362-.217-.29.362Z" transform="translate(-25.715 -16.868)" fill="#fff"/>
    <path id="Path_7959" data-name="Path 7959" d="M92.991,152.922a21.775,21.775,0,0,0-.362-3.042,1.277,1.277,0,0,0-1.087-.579,26.484,26.484,0,0,0-3.042,1.883l.217.652c.942.362,1.883.8,2.825,1.087A4.85,4.85,0,0,0,92.991,152.922Z" transform="translate(-19.155 -30.759)" fill="#08436a"/>
    <path id="Path_7960" data-name="Path 7960" d="M92.8,152.812h.435a21.78,21.78,0,0,0-.362-3.042V149.7l-.072-.072a1.751,1.751,0,0,0-1.376-.724h-.145l-.072.072c-1.087.58-2.1,1.3-3.115,1.883L87.8,151l.072.29.217.652.072.217.217.072c.942.362,1.883.8,2.9,1.087h0a1.233,1.233,0,0,0,.507.072,4.385,4.385,0,0,0,1.087-.145h.435v-.435H92.8v-.435a5.919,5.919,0,0,1-1.014.072h-.29c-.942-.29-1.883-.724-2.825-1.087l-.145.362.435-.145-.217-.652-.435.145.217.362c1.014-.652,2.028-1.3,3.042-1.883l-.217-.362v.435h0a.761.761,0,0,1,.652.362l.362-.217-.435.072c.145,1.014.29,1.956.362,2.97H92.8v0Z" transform="translate(-18.962 -30.649)" fill="#fff"/>
    <path id="Path_7961" data-name="Path 7961" d="M103.2,72.2l2.39,2.608,1.666-2.246c-.724-.724-1.3-1.666-1.739-1.666A9.1,9.1,0,0,0,103.2,72.2Z" transform="translate(-23.207 -9.15)" fill="#08436a"/>
    <path id="Path_7962" data-name="Path 7962" d="M102.924,72.066l-.29.29,2.753,2.97,2.173-2.9-.29-.29a12.594,12.594,0,0,1-.942-1.087l-.435-.435a.823.823,0,0,0-.58-.217h-.072a2.683,2.683,0,0,0-1.3.579c-.362.29-.8.507-1.087.724l-.652.29.362.362.362-.29.217.362a6.564,6.564,0,0,0,1.159-.8,2.378,2.378,0,0,1,1.014-.435l-.072-.435.072.435v0h0v0h0v0h.072a2.129,2.129,0,0,1,.58.58,9.174,9.174,0,0,0,.8.942l.29-.29-.362-.217-1.376,1.811-2.028-2.246-.362.29.217.362Z" transform="translate(-22.931 -9.013)" fill="#fff"/>
  </g>
</svg>
