<svg xmlns="http://www.w3.org/2000/svg" width="150" height="94.219" viewBox="0 0 150 94.219">
  <g id="TIMBER" transform="translate(-2.387 -51.7)">
    <g id="Layer_1-2" data-name="Layer 1-2" transform="translate(2.387 51.7)">
      <path id="Path_7731" data-name="Path 7731" d="M49.405,144.295,3.8,119.928V109.278L106.924,51.7l45.3,24.788V87.137Z" transform="translate(-2.95 -51.7)" fill="#08436a"/>
      <path id="Path_7732" data-name="Path 7732" d="M48.662,146.507a1.213,1.213,0,0,1-.662-.181h0L3.538,122.621h0a1.851,1.851,0,0,1-1.083-1.685v-5.656h-.06v-.662h0v-3.068a1.422,1.422,0,0,1,.842-1.444H3.3c8.483-4.753,17.027-9.506,25.39-14.2L70.081,72.924l34.776-19.433h0a2.337,2.337,0,0,1,2.346,0h0c14.5,7.821,29.24,15.763,43.74,23.645H151a2.524,2.524,0,0,1,1.083.842,2.114,2.114,0,0,1,.3,1.2v.06c-.06,1.865-.06,3.79,0,5.656v2.828a1.886,1.886,0,0,1-1.023,1.745h0L91.079,123.042,49.5,146.266h0C49.144,146.386,48.9,146.446,48.662,146.507Zm-6.919-5.295c1.143.6,2.346,1.2,3.55,1.865l1.384.722,1.2.6v-7.22a1.9,1.9,0,0,0-1.2-1.925C34.1,128.577,21.347,121.779,8.712,115.04l-4.693-2.467v3.249h0v3.49A2.555,2.555,0,0,0,5.584,121.9c12.033,6.378,24.187,12.875,36.159,19.313Zm8.844-5.776A2.338,2.338,0,0,0,49.5,136.76v.18c-.06,1.444-.06,2.888-.06,4.452h0v2.888l1.2-.6.3-.18h0c.3-.18.541-.241.782-.421l9.687-5.415,50.78-28.338,37.242-20.757a2.107,2.107,0,0,0,1.263-2.106c-.06-1.023,0-2.046,0-3.008h0V81.889a6.539,6.539,0,0,0-.06-1.083l-.18-1.143-1.023.541-.361.181-.6.3-16.726,9.326c-13.537,7.521-27.255,15.1-40.672,22.622a4.648,4.648,0,0,0-2.467,2.948c-.3.842-.6,1.745-.963,2.647a2.366,2.366,0,0,1-.12-.361c-.18-.541-.3-1.143-.481-1.685l-.3-.963L84.4,116.484l-12.214,6.8Zm-3.008-1.444a2.224,2.224,0,0,0,1.263.361,2.468,2.468,0,0,0,1.324-.421l1.263-.722c6.017-3.369,12.093-6.8,18.11-10.108l4.573-2.527,4.091-2.286,8-4.452a5.012,5.012,0,0,0,.9-.241,1.423,1.423,0,0,0,.782-.662l2.346-1.324a12.727,12.727,0,0,0,1.263-.662c2.226-1.263,4.573-2.647,7.22-4.091s5.295-2.948,7.521-4.212l2.707-1.5h0l6.739-3.73a5.553,5.553,0,0,1,.481-.3h.06l2.106-1.143c.181-.06.361-.181.541-.241h0c5.174-2.888,10.409-5.836,15.523-8.664h.06l6.378-3.55L149.86,78.4l-1.263-.722c-2.166-1.2-3.971-2.166-5.776-3.129h-.06l-13.477-7.461h0l-1.865-1.023c-1.685-.9-3.249-1.8-4.873-2.647l-10.409-5.535h0c-2.046-1.083-3.73-1.985-5.295-2.828h-.12a3.1,3.1,0,0,0-.662-.12,1.765,1.765,0,0,0-.963.241h0L82.475,67.81,77.12,70.819l-.06.06-.12.06L73.45,72.8h0L4.681,111.129,6,111.851l.3.181h0l.782.421c.541.3,1.023.541,1.5.842l.06.06a1.508,1.508,0,0,0,.421.241l12.695,6.739h0l.241.12.9.481h0c1.083.541,2.166,1.143,3.189,1.745a1.209,1.209,0,0,0,.481.241L28.567,124h0l10.95,5.836h.06l.18.06,3.309,1.745a16.207,16.207,0,0,1,1.745.963h0c.541.3,1.083.542,1.624.9h0a5.025,5.025,0,0,1,1.143.481Z" transform="translate(-2.387 -52.288)" fill="#fff"/>
      <path id="Path_7733" data-name="Path 7733" d="M23.011,123.744c.12-.06,1.564-1.8,1.685-1.865h0a24.764,24.764,0,0,0,2.707-2.888h0a11.044,11.044,0,0,1,2.286-2.467,10.687,10.687,0,0,1,2.888-1.685h0c4.452-1.865,8.965-3.67,13.357-5.415l3.49-1.444,7.22-2.888c4.633-1.865,9.386-3.73,14.019-5.716a23.639,23.639,0,0,0,7.4-4.633h0a9.012,9.012,0,0,0,1.5-2.407c.3-.6.541-1.263.842-1.865a16.653,16.653,0,0,1,1.324-2.768,24.342,24.342,0,0,1,4.212-4.753A45.463,45.463,0,0,1,91.058,79.1a61.344,61.344,0,0,1,7.761-4.392c2.527-1.2,5.114-2.286,8.182-3.61s6.077-2.647,9.386-4.212h0q2.166-1.354,4.151-2.888l.06.18,1.263.541a11.5,11.5,0,0,0-1.263.842h0c-.541.361-1.023.722-1.5,1.083a15.6,15.6,0,0,1-2.828,1.925h0c-2.587,1.143-5.174,2.226-7.761,3.309-2.407,1.023-4.873,2.046-7.34,3.129-4.753,2.106-10.288,4.813-14.981,8.9-2.226,1.925-4.512,4.392-5.174,7.942h0a4.574,4.574,0,0,1-.662,1.985,4.9,4.9,0,0,1-1.384,1.564,50.08,50.08,0,0,1-6.558,4.151,143.6,143.6,0,0,1-15.162,6.257c-1.8.662-3.73,1.384-5.6,2.106-5.234,2.046-10.77,4.332-17.448,7.16a14.281,14.281,0,0,0-4.272,2.828h0c-1.444,1.5-4.151,4.813-5.415,6.5ZM11.7,117.487a1.209,1.209,0,0,0,.481-.241c5.836-3.79,14.019-7.942,20.7-9.807A89.766,89.766,0,0,0,51.65,99.979c9.205-5.174,16.3-10.95,21.72-17.568h0c.782-1.023,1.564-2.106,2.286-3.189.421-.6.842-1.2,1.263-1.745l.12-.12-.18-.18,2.166-1.2a4.047,4.047,0,0,0-.421.662,34.88,34.88,0,0,1-2.166,3.55,44.066,44.066,0,0,1-4.151,5.234,57.56,57.56,0,0,1-4.693,4.693,76.944,76.944,0,0,1-10.649,8,83.977,83.977,0,0,1-23.164,10.228,64.746,64.746,0,0,0-18.17,8.062c-.12.12-2.166,1.384-2.346,1.5l-.361.241Z" transform="translate(-6.097 -56.6)" fill="#fff"/>
      <path id="Path_7734" data-name="Path 7734" d="M148.2,76.721c-3.67,8.3-16.3,14.861-18.05,15.763a3.857,3.857,0,0,0-1.5,1.263,1.434,1.434,0,0,0-.361.662h0c0,.06,0,.12-.06.12v.3c-.3.963-.6,1.925-.963,2.888a18.28,18.28,0,0,1-8.6,8.3h0a14.243,14.243,0,0,1-2.046.782,7.6,7.6,0,0,1-5.475-.481A3.142,3.142,0,0,1,110,105.48a2.208,2.208,0,0,1-.6-1.023,2.922,2.922,0,0,1,.481-2.346,14.015,14.015,0,0,1,2.587-3.068c.842-.722,1.685-1.444,2.587-2.106l-.06.12a37.859,37.859,0,0,0-2.587,2.828h0a21.793,21.793,0,0,0-1.624,2.467,2.2,2.2,0,0,0-.361,1.925,2.557,2.557,0,0,0,1.564,1.384,5.677,5.677,0,0,0,3.971.361h0c5.234-1.384,8.965-4.813,11.191-10.108.481-1.263.6-2.226.18-2.948a4.208,4.208,0,0,0-2.647-1.8h0a15.643,15.643,0,0,0-7.461-.241c-4.873.9-8.3,2.226-11.131,4.452-2.647,2.046-3.129,3.55-2.226,6.8,0,.12.06.241.06.361,0,.06.06.06.06.12h0a2.677,2.677,0,0,1-1.564,3.61c-11.131,5.776-22.682,11.732-34.475,16.967-2.166.963-4.633,2.046-7.039,3.008a59.748,59.748,0,0,1-7.22,2.407h0a16.61,16.61,0,0,0-4.091,1.8h0a43.352,43.352,0,0,0-3.73,2.828l-.662-.361a5.989,5.989,0,0,0,.9-.842,21.276,21.276,0,0,1,7.461-4.392h0l.421-.18a37.034,37.034,0,0,0,4.272-1.685c14.2-6.618,28.518-13.3,42.6-19.915,1.2-.6,1.925-.9,2.226-1.564s.06-1.324-.361-2.647h0a5.64,5.64,0,0,1,1.444-5.9h0a14.385,14.385,0,0,1,1.384-1.324,30.341,30.341,0,0,1,7.1-3.61,23.756,23.756,0,0,1,7.7-1.263,27.276,27.276,0,0,1,3.129.18,6.961,6.961,0,0,1,2.647.722,4.711,4.711,0,0,1,2.046,1.865l.18.241.3-.12c6.859-3.309,14.079-9.927,18.531-16.185Z" transform="translate(-19.442 -61.499)" fill="#fff"/>
      <path id="Path_7735" data-name="Path 7735" d="M218.735,88.922a9.529,9.529,0,0,0-2.286,1.263,11.05,11.05,0,0,1-4.573,3.008c-3.851,1.624-7.882,3.189-11.732,4.994a31.36,31.36,0,0,0-9.566,6.979,1.6,1.6,0,0,0-.3,2.166c.421.722.9,1.384,1.384,2.106.361.541.6.662,1.023.541l-2.166,1.2.181-.12c-.722-1.2-1.444-2.286-2.046-3.429a2.5,2.5,0,0,1,.541-3.249,45.414,45.414,0,0,1,4.452-3.851c3.49-2.467,7.461-3.971,11.371-5.6,1.925-.782,3.73-1.5,5.6-2.346.722-.361,1.444-.6,2.166-.9,1.5-.6,3.851-2.768,4.693-3.49Z" transform="translate(-76.437 -66.24)" fill="#fff"/>
      <path id="Path_7736" data-name="Path 7736" d="M115.3,149.343l-1.564,1.564c-.782-.3.06.963-.662.6l-.12.241c.481.421-1.143-.241-.662.18l-9.145,4.212a23.84,23.84,0,0,0-9.205-1.5,5.987,5.987,0,0,0-4.091,2.046,13.031,13.031,0,0,1-2.647,2.166,105.391,105.391,0,0,1-14.079,7.521c-1.624.722-4.332,1.985-6.077,2.768L65,167.814a4.372,4.372,0,0,0,1.5-.241c5.9-2.707,11.853-5.355,17.749-8.182a19.417,19.417,0,0,0,5.656-3.911,8.1,8.1,0,0,1,7.1-2.587,25.045,25.045,0,0,1,7.22,1.865,1.5,1.5,0,0,0,1.023.18c1.865-.963,3.67-1.985,5.6-3.068l-4.272-3.49.12-.181a41.715,41.715,0,0,1,4.512,1.2A5.1,5.1,0,0,0,115.3,149.343Z" transform="translate(-27.329 -90.14)" fill="#fff"/>
    </g>
  </g>
</svg>
