<svg xmlns="http://www.w3.org/2000/svg" width="121.855" height="180" viewBox="0 0 121.855 180">
  <g id="PLUMBING" transform="translate(-58.4 -13.1)">
    <g id="Layer_1-2" data-name="Layer 1-2" transform="translate(58.4 13.1)">
      <path id="Path_7963" data-name="Path 7963" d="M130.959,38.736a9.472,9.472,0,0,1-2.116,5.877c-2.037,2.743-5.564,5.172-10.03,6.818A44.241,44.241,0,0,1,103.141,54.1c-7.758,0-14.732-1.8-19.747-4.623a18.835,18.835,0,0,1-5.877-4.937A9.965,9.965,0,0,1,75.4,38.658a9.965,9.965,0,0,1,2.116-5.877c2.037-2.743,5.564-5.172,10.03-6.818A44.113,44.113,0,0,1,103.141,23.3c7.758,0,14.732,1.8,19.747,4.623a18.836,18.836,0,0,1,5.877,4.937A8.7,8.7,0,0,1,130.959,38.736Z" transform="translate(-62.078 -15.306)" fill="#00436a"/>
      <path id="Path_7964" data-name="Path 7964" d="M136.682,28.334a26.305,26.305,0,0,0-8.463-7.053c-7.209-4.075-17.162-6.583-28.211-6.583a64.087,64.087,0,0,0-22.333,3.84c-6.426,2.351-11.519,5.8-14.419,9.8A13.566,13.566,0,0,0,60.2,36.876a14.543,14.543,0,0,0,3.056,8.542,27.581,27.581,0,0,0,8.463,7.131c7.209,4.153,17.162,6.583,28.211,6.583a63.777,63.777,0,0,0,22.333-3.84c6.347-2.429,11.363-5.877,14.419-9.874a13.464,13.464,0,0,0,0-17.083ZM126.417,43.458a21.808,21.808,0,0,1-6.191,5.172c-5.25,2.978-12.381,4.7-20.218,4.78a45.97,45.97,0,0,1-15.986-2.664,23.641,23.641,0,0,1-10.5-7.209,11.005,11.005,0,0,1-2.351-6.5,11.005,11.005,0,0,1,2.351-6.5,20.091,20.091,0,0,1,6.191-5.25c5.25-2.978,12.381-4.78,20.3-4.78a44.284,44.284,0,0,1,15.986,2.743,23.2,23.2,0,0,1,10.5,7.209,11.005,11.005,0,0,1,2.351,6.5A11.86,11.86,0,0,1,126.417,43.458Z" transform="translate(-58.789 -13.445)" fill="#00436a"/>
      <path id="Path_7965" data-name="Path 7965" d="M139.76,49.7V60.436a14.543,14.543,0,0,1-3.056,8.542c-2.978,4-7.993,7.444-14.419,9.874a63.777,63.777,0,0,1-22.333,3.84c-11.049,0-21.08-2.508-28.211-6.583a26.257,26.257,0,0,1-8.385-7.131A13.566,13.566,0,0,1,60.3,60.436V49.7a15.054,15.054,0,0,0,2.273,3.918c3.135,4.232,8.306,7.68,14.811,10.187a64.223,64.223,0,0,0,22.725,3.918c11.206,0,21.393-2.586,28.759-6.739a26.586,26.586,0,0,0,8.777-7.366A23.546,23.546,0,0,0,139.76,49.7Z" transform="translate(-58.811 -21.019)" fill="#00436a"/>
      <path id="Path_7966" data-name="Path 7966" d="M131.133,85.1v84.632a10.069,10.069,0,0,1-2.037,5.877,21.57,21.57,0,0,1-9.952,6.818,43.389,43.389,0,0,1-15.516,2.664c-7.68,0-14.576-1.724-19.512-4.545a20.73,20.73,0,0,1-5.877-4.859A9.4,9.4,0,0,1,76.2,169.81v-84.4a47.27,47.27,0,0,0,4.545,2.037,64.223,64.223,0,0,0,22.725,3.918C114.128,91.291,123.845,89.018,131.133,85.1Z" transform="translate(-62.251 -28.679)" fill="#00436a"/>
      <path id="Path_7967" data-name="Path 7967" d="M176.694,120.963a21.117,21.117,0,0,1-10.266,17.71L147.7,150.114V85.7a14.668,14.668,0,0,1,6.034,1.567A46.709,46.709,0,0,1,164.47,95.26c7.209,7.209,11.363,15.986,12.146,23.9C176.616,119.788,176.694,120.415,176.694,120.963Z" transform="translate(-77.722 -28.808)" fill="#00436a"/>
      <path id="Path_7968" data-name="Path 7968" d="M139.682,190a14.61,14.61,0,0,1-2.978,7.288c-2.978,4-7.993,7.445-14.419,9.8a63.777,63.777,0,0,1-22.333,3.84c-11.049,0-21.08-2.508-28.211-6.582a27.162,27.162,0,0,1-8.463-7.053,14.347,14.347,0,0,1-2.978-7.209A18.166,18.166,0,0,1,71.741,174.8v14.419a10.52,10.52,0,0,0,2.273,6.426c2.194,2.978,5.877,5.407,10.422,7.131a45.48,45.48,0,0,0,15.829,2.743c7.836,0,14.889-1.8,20.061-4.7a20.6,20.6,0,0,0,6.191-5.172,10.431,10.431,0,0,0,2.273-6.5V174.957A18.218,18.218,0,0,1,139.682,190Z" transform="translate(-58.811 -48.087)" fill="#00436a"/>
      <path id="Path_7969" data-name="Path 7969" d="M139.76,199.2v10.5a14.543,14.543,0,0,1-3.056,8.542c-2.978,4-7.993,7.444-14.419,9.874a63.777,63.777,0,0,1-22.333,3.84c-11.049,0-21.08-2.508-28.211-6.583a26.257,26.257,0,0,1-8.385-7.131A13.566,13.566,0,0,1,60.3,209.7V199.2a15.054,15.054,0,0,0,2.273,3.918c3.135,4.153,8.306,7.68,14.811,10.187a64.223,64.223,0,0,0,22.725,3.918c11.206,0,21.393-2.586,28.759-6.739a26.586,26.586,0,0,0,8.777-7.366A20.8,20.8,0,0,0,139.76,199.2Z" transform="translate(-58.811 -53.366)" fill="#00436a"/>
      <path id="Path_7970" data-name="Path 7970" d="M187.43,122.067a57.788,57.788,0,0,1-2.743,16.77c-2.429,1.332-4.859,2.429-7.053,3.683h0a13.805,13.805,0,0,1-6.191,1.411,17.141,17.141,0,0,1-9.482-3.135l5.015-3.056a22.146,22.146,0,0,0,10.736-18.494,15.1,15.1,0,0,0-.078-1.881c-.784-8.15-5.015-17.083-12.46-24.528A46.762,46.762,0,0,0,154.2,84.609a14.638,14.638,0,0,0-6.5-1.724,30.785,30.785,0,0,0,7.209-5.485c8.385.549,16.3,5.8,22.255,13.635a53.02,53.02,0,0,1,10.266,29.621Z" transform="translate(-77.722 -27.013)" fill="#00436a"/>
      <path id="Path_7971" data-name="Path 7971" d="M200.238,114.747c0,8.306-2.978,13.165-6.974,16.691a27.159,27.159,0,0,1-5.015,3.448,58.279,58.279,0,0,0,2.508-16.064v-1.489a54.4,54.4,0,0,0-10.5-30.17C174.378,79.326,166.542,74,158,73.136c.235-.313.47-.549.705-.862A15.4,15.4,0,0,0,162,63.105V62.4c5.564,1.254,13.087,4.859,19.983,11.284a58.079,58.079,0,0,1,16.848,29.7A62.565,62.565,0,0,1,200.238,114.747Z" transform="translate(-79.95 -23.767)" fill="#00436a"/>
      <g id="Group_2286" data-name="Group 2286" transform="translate(12.068 6.818)">
        <path id="Path_7972" data-name="Path 7972" d="M102.246,55.339A44.806,44.806,0,0,1,86.808,52.6c-4.859-1.881-8.463-4.388-10.657-7.288A11,11,0,0,1,73.8,38.57a11.168,11.168,0,0,1,2.429-6.661A20.473,20.473,0,0,1,82.5,26.58c5.407-3.135,12.616-4.78,20.374-4.78h.627a44.806,44.806,0,0,1,15.438,2.743c4.7,1.8,8.385,4.31,10.657,7.288a11,11,0,0,1,2.351,6.739,11.168,11.168,0,0,1-2.429,6.661,19.058,19.058,0,0,1-6.269,5.329c-5.407,3.135-12.616,4.78-20.374,4.78Zm-.078-32.05a42.981,42.981,0,0,0-14.889,2.664A21.048,21.048,0,0,0,77.4,32.692a9.57,9.57,0,0,0-2.037,5.721A9.34,9.34,0,0,0,77.4,44.055a18.63,18.63,0,0,0,5.8,4.859c5.25,2.978,12.225,4.623,19.591,4.623h.627a43.412,43.412,0,0,0,14.967-2.664,21.048,21.048,0,0,0,9.874-6.739,8.55,8.55,0,0,0,1.959-5.642,9.61,9.61,0,0,0-2.037-5.721,18.63,18.63,0,0,0-5.8-4.859c-5.25-2.978-12.225-4.623-19.591-4.623Z" transform="translate(-73.8 -21.8)" fill="#fff"/>
      </g>
      <g id="Group_2287" data-name="Group 2287">
        <path id="Path_7973" data-name="Path 7973" d="M98.914,60.118A64.812,64.812,0,0,1,76.737,56.2C70,53.614,64.826,50.087,61.77,45.934a17.254,17.254,0,0,1-2.351-4A15.54,15.54,0,0,1,58.4,36.609a15.425,15.425,0,0,1,3.37-9.325,28.244,28.244,0,0,1,8.855-7.444C78.383,15.451,88.648,13.1,99.541,13.1h.627a64.812,64.812,0,0,1,22.177,3.918c6.661,2.586,11.833,6.112,14.967,10.266a14.856,14.856,0,0,1,2.273,14.732,14.026,14.026,0,0,1-2.273,4,26.943,26.943,0,0,1-8.855,7.444C120.7,57.845,110.433,60.2,99.541,60.2Zm0-45.529a62.325,62.325,0,0,0-21.628,3.84c-6.347,2.429-11.206,5.8-14.184,9.8a14.188,14.188,0,0,0-2.978,8.385A13.011,13.011,0,0,0,63.1,44.915a26.175,26.175,0,0,0,8.385,7.053c7.366,4.153,17.318,6.5,28.054,6.5h.627a62.325,62.325,0,0,0,21.628-3.84c6.347-2.429,11.284-5.8,14.262-9.8a13.342,13.342,0,0,0,2.9-8.463,12.856,12.856,0,0,0-2.978-8.306,26.626,26.626,0,0,0-8.385-6.974c-7.366-4.232-17.318-6.582-28.054-6.582Z" transform="translate(-58.4 -13.1)" fill="#fff"/>
      </g>
      <g id="Group_2288" data-name="Group 2288" transform="translate(0.157 140.27)">
        <path id="Path_7974" data-name="Path 7974" d="M99.035,215.922A64.812,64.812,0,0,1,76.859,212c-6.661-2.586-11.833-6.112-14.967-10.266a14.512,14.512,0,0,1-2.273-4,12.491,12.491,0,0,1-.94-3.918V193.2c0-.235-.078-.47-.078-.705v-.313h1.646v.313a6.334,6.334,0,0,0,.078,1.254,14,14,0,0,0,2.9,7.053,26.626,26.626,0,0,0,8.385,6.974c7.366,4.232,17.318,6.582,28.054,6.582h.627a61.575,61.575,0,0,0,21.55-3.84c6.269-2.429,11.206-5.721,14.262-9.717a14.7,14.7,0,0,0,2.9-7.131,6.74,6.74,0,0,0,.078-1.254V192.1h1.646v.313a8.518,8.518,0,0,1-.078,1.411,15.1,15.1,0,0,1-.94,3.918,20.22,20.22,0,0,1-2.194,4,28.625,28.625,0,0,1-8.855,7.445c-7.758,4.388-18.024,6.739-28.916,6.739Z" transform="translate(-58.6 -192.1)" fill="#fff"/>
      </g>
      <g id="Group_2289" data-name="Group 2289" transform="translate(0 23.117)">
        <path id="Path_7975" data-name="Path 7975" d="M98.835,82.33a65.982,65.982,0,0,1-22.177-3.84,39.676,39.676,0,0,1-4.545-1.959l-1.019-.549a27.952,27.952,0,0,1-9.325-7.758A15.605,15.605,0,0,1,58.4,58.9V42.6h1.646V58.9a14.188,14.188,0,0,0,2.978,8.385,27.206,27.206,0,0,0,8.385,7.053c7.444,4.232,17.4,6.583,28.054,6.583h.627a62.325,62.325,0,0,0,21.628-3.84c6.269-2.429,11.206-5.8,14.262-9.8a13.222,13.222,0,0,0,2.978-8.385V42.6h1.724V58.9a15.248,15.248,0,0,1-3.37,9.325,2.078,2.078,0,0,1-.392.47c-.078.157-.235.235-.313.392a9.393,9.393,0,0,1-.862.94,29.053,29.053,0,0,1-7.288,5.564H128.3a1.713,1.713,0,0,1-.392.235c-.157.078-.313.235-.47.313-7.6,4-17.553,6.191-27.9,6.191Z" transform="translate(-58.4 -42.6)" fill="#fff"/>
      </g>
      <g id="Group_2290" data-name="Group 2290" transform="translate(12.616 55.481)">
        <path id="Path_7976" data-name="Path 7976" d="M103.338,186.085a46.153,46.153,0,0,1-15.908-2.743c-4.78-1.8-8.385-4.31-10.579-7.209a11.08,11.08,0,0,1-2.351-6.583V83.978h1.646v85.572a8.969,8.969,0,0,0,1.959,5.642,19.919,19.919,0,0,0,5.8,4.78c5.094,2.9,11.99,4.545,19.356,4.545h.627a42.233,42.233,0,0,0,14.811-2.664,21.19,21.19,0,0,0,9.8-6.739,10.075,10.075,0,0,0,1.959-5.72V83.9h1.411a15.832,15.832,0,0,1,6.661,1.724,47.477,47.477,0,0,1,11.049,8.306c7.131,7.131,11.754,16.143,12.538,24.684a3.816,3.816,0,0,0,.078.94c0,.313.078.627.078.94A22.488,22.488,0,0,1,151.3,139.224l-5.015,3.056-.94.549L132.1,151.057v18.337a10.87,10.87,0,0,1-2.273,6.661,21.973,21.973,0,0,1-6.269,5.25C118.07,184.44,110.939,186.085,103.338,186.085ZM132.1,149.176l18.259-11.128a20.5,20.5,0,0,0,10.109-17.475,12.134,12.134,0,0,0-.078-1.724c-.784-8.228-5.172-16.848-12.068-23.744a45.384,45.384,0,0,0-10.657-7.915A14.368,14.368,0,0,0,132.1,85.7v63.474Z" transform="translate(-74.5 -83.9)" fill="#fff"/>
      </g>
      <g id="Group_2291" data-name="Group 2291" transform="translate(0 124.989)">
        <path id="Path_7977" data-name="Path 7977" d="M98.914,227.533a64.812,64.812,0,0,1-22.177-3.918C70,221.028,64.826,217.5,61.77,213.349a15.605,15.605,0,0,1-3.37-9.325V191.172a12.134,12.134,0,0,1,.078-1.646,6.049,6.049,0,0,1,.157-1.175v-.157a19.176,19.176,0,0,1,12.616-15.281l.627-.313.549,1.567-1.019.313A17.592,17.592,0,0,0,60.2,189.526a10.5,10.5,0,0,0-.078,1.567v12.93a14.188,14.188,0,0,0,2.978,8.385,27.206,27.206,0,0,0,8.385,7.053c7.366,4.232,17.318,6.583,28.054,6.583h.627A62.325,62.325,0,0,0,121.8,222.2c6.269-2.429,11.206-5.8,14.262-9.8a13.222,13.222,0,0,0,2.978-8.385V191.172a9.99,9.99,0,0,0-.078-1.567,17.956,17.956,0,0,0-10.736-14.811l-1.019-.47.627-1.567.627.313a19.312,19.312,0,0,1,11.911,15.124,8.725,8.725,0,0,1,.157,1.332,6.147,6.147,0,0,1,.157,1.646v12.852a15.3,15.3,0,0,1-3.37,9.4,28.626,28.626,0,0,1-8.855,7.444c-7.758,4.388-18.024,6.739-28.916,6.739Z" transform="translate(-58.4 -172.6)" fill="#fff"/>
      </g>
      <g id="Group_2292" data-name="Group 2292" transform="translate(81.106 37.066)">
        <path id="Path_7978" data-name="Path 7978" d="M174.438,141.663a17.39,17.39,0,0,1-10.579-3.761l-.549-.392,1.019-1.332.862.627a15.46,15.46,0,0,0,9.325,3.056,13.388,13.388,0,0,0,6.034-1.411c1.1-.627,2.273-1.175,3.448-1.8s2.429-1.175,3.6-1.881c.235-.157.47-.235.705-.392s.47-.235.705-.392a31.833,31.833,0,0,0,4.937-3.37c4.7-4.075,6.9-9.247,6.9-16.456a47.166,47.166,0,0,0-1.489-11.206,57.5,57.5,0,0,0-16.77-29.543c-5.956-5.564-13.4-9.717-19.826-11.206a.592.592,0,0,0-.313-.078c-.078,0-.235-.078-.313-.078l-.235-.078.392-1.567.705.157c7.053,1.724,14.654,5.956,20.923,11.754a58.67,58.67,0,0,1,17.162,30.4,53.6,53.6,0,0,1,1.567,11.6c0,7.6-2.429,13.4-7.445,17.71a44.7,44.7,0,0,1-9.8,6.034c-1.332.705-2.586,1.332-3.761,1.959a17.783,17.783,0,0,1-7.209,1.646Z" transform="translate(-161.9 -60.4)" fill="#fff"/>
      </g>
      <g id="Group_2293" data-name="Group 2293" transform="translate(76.717 49.134)">
        <path id="Path_7979" data-name="Path 7979" d="M186.078,138.882l.235-.47a52.364,52.364,0,0,0,2.743-16.613v-1.411a53.672,53.672,0,0,0-10.187-29.465c-6.191-8.228-14.027-13.087-22.02-13.478H156.3V75.8h.313a5.552,5.552,0,0,1,1.1.078c8.15.784,16.143,5.8,22.412,14.105A54.585,54.585,0,0,1,190.7,120.31v1.332a57.472,57.472,0,0,1-2.508,16.143l-.47,1.567Z" transform="translate(-156.3 -75.8)" fill="#fff"/>
      </g>
    </g>
  </g>
</svg>
